{
  "title": "Eleceed - Ch.19 - Share Any Manga on MangaPark",
  "slug": "2118366-ch-19",
  "url": "https://mangapark.net/title/87295-en-eleceed/2118366-ch-19",
  "comments": [
    {
      "username": "User.524067",
      "avatar": "",
      "comment": "The way they keep mentioning how fat the cat is cracks me up."
    },
    {
      "username": "SUGONDESE420",
      "avatar": "output/avatar/SUGONDESE420",
      "comment": "Everybody loves jiwoo...... nobody can hate him for more than 2 minutes."
    },
    {
      "username": "Luu Vu",
      "avatar": "",
      "comment": "Those 3 that got beat up hate him tho :))"
    },
    {
      "username": "User.930468",
      "avatar": "",
      "comment": "Poor Kaiden \ud83d\ude23\ud83d\ude23 they stay fat shaming the little Neko-chan"
    },
    {
      "username": "JiuJitsuJesus",
      "avatar": "output/avatar/JiuJitsuJesus",
      "comment": "HAH reminds me of my living room. couch, tv, heavy bag, double ended bag, pull up bar, free weights, bench.... am i training to become an awakened!?!?!"
    },
    {
      "username": "ASHBORN28\u2642\ufe0e",
      "avatar": "output/avatar/ASHBORN28\u2642\ufe0e",
      "comment": "best sensei. plus the webtoon is korean but the Kaiden's reaction translation said \"subarashi\" (japanese)"
    }
  ]
}