{
  "title": "Eleceed - Ch.020 - Share Any Manga on MangaPark",
  "slug": "2125809-ch-020",
  "url": "https://mangapark.net/title/87295-en-eleceed/2125809-ch-020",
  "comments": [
    {
      "username": "Codewar",
      "avatar": "",
      "comment": "an ally has be earned kdjdjdjdj\nI hope\nMaybe jiwoo has other ability than speed,or he can create a new justu if he train harder kdkddkdkdkf\nWhat im sayin"
    },
    {
      "username": "someranuser",
      "avatar": "",
      "comment": "That dude prob has wind resistance, making him move faster than normal"
    },
    {
      "username": "someranuser",
      "avatar": "",
      "comment": "(No not; wind abilities don't work on him. I'm saying he can manipulate the wind, like a knife cutting butter)"
    }
  ]
}