{
  "title": "Eleceed - Ch.040 - Share Any Manga on MangaPark",
  "slug": "2351606-ch-040",
  "url": "https://mangapark.net/title/87295-en-eleceed/2351606-ch-040",
  "comments": [
    {
      "username": "Codewar",
      "avatar": "",
      "comment": "Well master kaiden you just earned new ability\nDog ability ahahhshshshs"
    }
  ]
}