{
  "title": "Eleceed - Ch.058 - Share Any Manga on MangaPark",
  "slug": "2461448-ch-058",
  "url": "https://mangapark.net/title/87295-en-eleceed/2461448-ch-058",
  "comments": [
    {
      "username": "Ms. Jo'e\u2640\ufe0e",
      "avatar": "output/avatar/Ms. Jo'e\u2640\ufe0e",
      "comment": "She's pretty cool. \ud83d\udc4d"
    },
    {
      "username": "Codewar",
      "avatar": "",
      "comment": "Well good job babies jdjdjdjdjjd that black and grey is female right?"
    },
    {
      "username": "Lord_Maximus",
      "avatar": "",
      "comment": "She's damn cool and hot\u2764\ufe0f\u200d\ud83d\udd25\ud83d\udd25"
    },
    {
      "username": "Seira_\u2640\ufe0e",
      "avatar": "output/avatar/Seira_\u2640\ufe0e",
      "comment": "Seeing animals cower and shiver hurts me, brings back traumatizing memory of when my dog went missing and when we found him a few days later he was covered with wounds, we later found out she got ran over by a vehicle and has shown results of violence bec everytime anyone gets near her or tries to pet her she\u2019d cower and shiver \ud83d\udc94"
    }
  ]
}