{
  "title": "Eleceed - Ch.059 - Share Any Manga on MangaPark",
  "slug": "2465643-ch-059",
  "url": "https://mangapark.net/title/87295-en-eleceed/2465643-ch-059",
  "comments": [
    {
      "username": "Mutual_retardation60000",
      "avatar": "output/avatar/Mutual_retardation60000",
      "comment": "Sheesh"
    },
    {
      "username": "Kurai Mofiasu\u2642\ufe0e",
      "avatar": "output/avatar/Kurai Mofiasu\u2642\ufe0e.jpg",
      "comment": "I SHIP... I SHIP THESE TWO."
    },
    {
      "username": "Isaac Ramirez",
      "avatar": "",
      "comment": "iuk..."
    },
    {
      "username": "PurplePeach96\u2640\ufe0e",
      "avatar": "output/avatar/PurplePeach96\u2640\ufe0e",
      "comment": "Is she a tsundere just like his brother?? So cute\ud83e\udd70\ud83e\udd70"
    },
    {
      "username": "User.734279",
      "avatar": "output/avatar/User.734279",
      "comment": "No, a kuudere, since unlike Jisuk, she's quiet and reserved."
    },
    {
      "username": "PurplePeach96\u2640\ufe0e",
      "avatar": "output/avatar/PurplePeach96\u2640\ufe0e",
      "comment": "Yeah2 thank you for telling me..\u263a\ufe0f i forgot what it's called."
    },
    {
      "username": "rishi_aka_clown\u2642\ufe0e",
      "avatar": "output/avatar/rishi_aka_clown\u2642\ufe0e",
      "comment": "If she's around 5-6 years older, then I'm game\nI am not too fond of these ships of 10 year difference tbh"
    },
    {
      "username": "mysticallystatic\u2640\ufe0e",
      "avatar": "output/avatar/mysticallystatic\u2640\ufe0e",
      "comment": "I really hope she isnt too old that would indeed be weird.. Lol"
    },
    {
      "username": "Codewar",
      "avatar": "",
      "comment": "Man, nuna is for kaiden\nWait she blushing cus she know kaiden is a cat or she is really into jiwoo\nNuna u stay away from minor"
    },
    {
      "username": "momosh816",
      "avatar": "",
      "comment": "I hope she love him"
    },
    {
      "username": "Knowledgeseeker\u2642\ufe0e",
      "avatar": "output/avatar/Knowledgeseeker\u2642\ufe0e.jpg",
      "comment": "Bruhh I can't distinguish blush face and their normal face lol"
    },
    {
      "username": "Koberoyte\u2642\ufe0e",
      "avatar": "output/avatar/Koberoyte\u2642\ufe0e",
      "comment": "Ikr"
    },
    {
      "username": "_Megacat99_",
      "avatar": "output/avatar/_Megacat99_",
      "comment": "Smooth"
    },
    {
      "username": "blank_551",
      "avatar": "",
      "comment": "i always thought kayden will hook up with her but........... damn author"
    }
  ]
}