{
  "title": "Eleceed - Ch.073 - Share Any Manga on MangaPark",
  "slug": "2545054-ch-073",
  "url": "https://mangapark.net/title/87295-en-eleceed/2545054-ch-073",
  "comments": [
    {
      "username": "Ms. Jo'e\u2640\ufe0e",
      "avatar": "output/avatar/Ms. Jo'e\u2640\ufe0e",
      "comment": "The feels, when you're so proud to be the person who taught the student well and that student really appreciated your teachings. That's makes you HAPPY & PROUD! \ud83e\udd70"
    },
    {
      "username": "Hello",
      "avatar": "output/avatar/Hello",
      "comment": "His face just says it all. HAHAHAHAHAHA \ud83d\ude02"
    },
    {
      "username": "Koberoyte\u2642\ufe0e",
      "avatar": "output/avatar/Koberoyte\u2642\ufe0e",
      "comment": "Indeed, you can tell how happy and proud he is"
    },
    {
      "username": "Codewar",
      "avatar": "",
      "comment": "Creepy old man kdkdkdkkdkd pls stop smiling so wierd"
    },
    {
      "username": "Ryan Akmal",
      "avatar": "output/avatar/Ryan Akmal.jpg",
      "comment": "I love how they r so precious that im gonna die of cuteness overload \ud83e\udd7a\u2764\ufe0f\u2728\u2728"
    },
    {
      "username": "KOOLKIDDRAGO",
      "avatar": "",
      "comment": "Proud father."
    },
    {
      "username": "CouchKun",
      "avatar": "output/avatar/CouchKun",
      "comment": "One the few manga to make me laugh out loud."
    }
  ]
}