{
  "title": "Eleceed - Ch.90 - Share Any Manga on MangaPark",
  "slug": "2625565-ch-90",
  "url": "https://mangapark.net/title/87295-en-eleceed/2625565-ch-90",
  "comments": [
    {
      "username": "mizutsuki",
      "avatar": "output/avatar/mizutsuki",
      "comment": "They believe it wahahahahaha \ud83e\udd23\ud83e\udd23\ud83e\udd23\nThe genes \ud83e\udd23\ud83e\udd23\ud83e\udd23 cat punch \ud83e\udd23\ud83e\udd23\ud83e\udd23"
    },
    {
      "username": "Ms. Jo'e\u2640\ufe0e",
      "avatar": "output/avatar/Ms. Jo'e\u2640\ufe0e",
      "comment": "This 2 bullies have one their target to bully. \ud83e\udd2d\ud83e\udd2d\ud83e\udd2d"
    },
    {
      "username": "maxedgoode",
      "avatar": "",
      "comment": "Kinda seems familiar it likes karma .\nYeah from assassination class room.\nKarma x Rio type antics"
    },
    {
      "username": "Snow09fire\u2640\ufe0e",
      "avatar": "output/avatar/Snow09fire\u2640\ufe0e.jpg",
      "comment": "I can't get over\ud83d\ude05\ud83d\ude02\ud83d\ude05\ud83d\ude02\ud83d\ude05\ud83d\ude02"
    },
    {
      "username": "Justidi0t\u2642\ufe0e",
      "avatar": "output/avatar/Justidi0t\u2642\ufe0e.png",
      "comment": "LET'S GOOOO"
    },
    {
      "username": "maxedgoode",
      "avatar": "",
      "comment": "Ship one set sail. Ship two now lunching"
    },
    {
      "username": "User.964752",
      "avatar": "",
      "comment": "Ship one? Who??\nI think your saying is the ship two is Iseul and Jiwoo"
    },
    {
      "username": "User.964752",
      "avatar": "",
      "comment": "Ship one? Who??\nI think your saying is the ship two is Iseul and Jiwoo"
    },
    {
      "username": "User.964752",
      "avatar": "",
      "comment": "Ship one? Who??\nI think your saying is the ship two is Iseul and Jiwoo"
    },
    {
      "username": "mysticallystatic\u2640\ufe0e",
      "avatar": "output/avatar/mysticallystatic\u2640\ufe0e",
      "comment": "Damn those teeth"
    },
    {
      "username": "User.930468",
      "avatar": "",
      "comment": "Ohhh ohhhh \ud83d\ude06\ud83d\ude06\ud83d\ude06"
    },
    {
      "username": "LeGlazer",
      "avatar": "",
      "comment": "They caught her lacking"
    },
    {
      "username": "U.1112219",
      "avatar": "output/avatar/U.1112219",
      "comment": "\ud83d\ude02\ud83e\udd2d\ud83d\ude02\ud83e\udd2d"
    }
  ]
}