{
  "title": "Eleceed - Ch.089 - Share Any Manga on MangaPark",
  "slug": "2625638-ch-089",
  "url": "https://mangapark.net/title/87295-en-eleceed/2625638-ch-089",
  "comments": [
    {
      "username": "User.710362",
      "avatar": "",
      "comment": "Eyy the comedy here is pretty good"
    },
    {
      "username": "Codewar",
      "avatar": "",
      "comment": "Wooo that a badassh scene of kayden in cat form"
    },
    {
      "username": "Mutual_retardation60000",
      "avatar": "output/avatar/Mutual_retardation60000",
      "comment": "Get rekt by a pussy lmao"
    },
    {
      "username": "Bulbulito_Bayagbag",
      "avatar": "output/avatar/Bulbulito_Bayagbag",
      "comment": "You sure you wanna hear this cat? Then meow meow motherf*cker hahaha"
    },
    {
      "username": "warchlyde\u2642\ufe0e",
      "avatar": "output/avatar/warchlyde\u2642\ufe0e",
      "comment": "Meow meow bi**h......\n\ud83e\udd23"
    },
    {
      "username": "OTegann\u2642\ufe0e",
      "avatar": "output/avatar/OTegann\u2642\ufe0e",
      "comment": "Waifu intro and a kayden whooping???\u2026epic chapter"
    },
    {
      "username": "FeEDTA2",
      "avatar": "output/avatar/FeEDTA2",
      "comment": "Kayden, subin and jisuk are comedy gold"
    },
    {
      "username": "ryuuko00",
      "avatar": "output/avatar/ryuuko00",
      "comment": "LMAOO"
    },
    {
      "username": "LexaEterna",
      "avatar": "output/avatar/LexaEterna",
      "comment": ""
    },
    {
      "username": "FeEDTA2",
      "avatar": "output/avatar/FeEDTA2",
      "comment": "Yo this is jokes"
    },
    {
      "username": "player1645",
      "avatar": "output/avatar/player1645",
      "comment": "wahaha..... he met his ancestor in heaven for a second there!! \ud83e\udd23\ud83e\udd23\ud83e\udd23"
    }
  ]
}