{
  "title": "Eleceed - Ch.094 - Share Any Manga on MangaPark",
  "slug": "2626406-ch-094",
  "url": "https://mangapark.net/title/87295-en-eleceed/2626406-ch-094",
  "comments": [
    {
      "username": "Codewar",
      "avatar": "",
      "comment": "Those duo trouble makers really got this\nHdhdhdhdhdjd\nTukang ngadu dasar"
    },
    {
      "username": "User.567415",
      "avatar": "",
      "comment": "I'm surprised those two aren't dating"
    }
  ]
}