{
  "title": "Eleceed - Ch.119 - Share Any Manga on MangaPark",
  "slug": "2626744-ch-119",
  "url": "https://mangapark.net/title/87295-en-eleceed/2626744-ch-119",
  "comments": [
    {
      "username": "Codewar",
      "avatar": "",
      "comment": "Jiwoo now more serious and cooler"
    },
    {
      "username": "meow-pi",
      "avatar": "output/avatar/meow-pi",
      "comment": "What, do you think you're the only one who got stronger lol"
    }
  ]
}