{
  "title": "Eleceed - Ch.113 - Share Any Manga on MangaPark",
  "slug": "2626725-ch-113",
  "url": "https://mangapark.net/title/87295-en-eleceed/2626725-ch-113",
  "comments": [
    {
      "username": "Reader",
      "avatar": "output/avatar/Reader",
      "comment": "damn that kitty chop on the neck lol"
    },
    {
      "username": "Dr Tupi\u2642\ufe0e",
      "avatar": "",
      "comment": "Damn it Kayden!"
    },
    {
      "username": "NemeSiZ_Tman\u2642\ufe0e",
      "avatar": "output/avatar/NemeSiZ_Tman\u2642\ufe0e",
      "comment": "He wasn't kidding when he told Jiwoon it would kill him"
    },
    {
      "username": "User.524067",
      "avatar": "",
      "comment": "Super kitty paw pap"
    },
    {
      "username": "U.1112219",
      "avatar": "output/avatar/U.1112219",
      "comment": "That what i call nyan nyan chop"
    }
  ]
}