{
  "title": "Eleceed - Ch.93 - Share Any Manga on MangaPark",
  "slug": "2626355-ch-93",
  "url": "https://mangapark.net/title/87295-en-eleceed/2626355-ch-93",
  "comments": [
    {
      "username": "User.884216",
      "avatar": "output/avatar/User.884216",
      "comment": "\"this is the power of cats, bitch\" I CAN'T ANYMORE KAIDEN IS A PART TIME COMEDIAN \ud83d\udc80"
    },
    {
      "username": "Koberoyte\u2642\ufe0e",
      "avatar": "output/avatar/Koberoyte\u2642\ufe0e",
      "comment": "Agreed\ud83d\ude02\ud83d\ude02\ud83d\ude02\ud83d\ude02\ud83d\ude02\ud83d\ude02\ud83d\ude02\ud83d\ude02"
    },
    {
      "username": "Ms. Jo'e\u2640\ufe0e",
      "avatar": "output/avatar/Ms. Jo'e\u2640\ufe0e",
      "comment": "Whatever you do with Kaiden the cat you can't win! \ud83e\udd2d\ud83d\ude02\ud83d\ude39 2 lose 0 win!\n*i feel bad with the boy, Soocheon though."
    },
    {
      "username": "YoniLA",
      "avatar": "output/avatar/YoniLA",
      "comment": "0-2 against a cst just give up already"
    }
  ]
}