{
  "title": "Eleceed - Ch.162 - Share Any Manga on MangaPark",
  "slug": "2705579-ch-162",
  "url": "https://mangapark.net/title/87295-en-eleceed/2705579-ch-162",
  "comments": [
    {
      "username": "KAMINE",
      "avatar": "output/avatar/KAMINE",
      "comment": "Sh1t Cliff hanger nanaman!!!\ud83d\ude06\ud83d\ude06\ud83d\ude06\ud83d\ude06"
    },
    {
      "username": "User.473974",
      "avatar": "",
      "comment": "Epal noh"
    },
    {
      "username": "Codewar",
      "avatar": "",
      "comment": "Lets launch an ult big fat punch cute paw\nDkdkdkdkkd\nMan i also bad at naming technique\nBtw jiwoo pls dont name ur technique in weird way too"
    },
    {
      "username": "Diellza\u2640\ufe0e",
      "avatar": "output/avatar/Diellza\u2640\ufe0e",
      "comment": "whaaaatttttttttt i believe kaiden just need one punch but why cliff hanger!!!"
    },
    {
      "username": "TsukishimaDREE",
      "avatar": "output/avatar/TsukishimaDREE",
      "comment": "Me during zoom class early in the morning:"
    },
    {
      "username": "balivanjava5",
      "avatar": "",
      "comment": "Come on kayden, one hit kill \ud83d\ude0d"
    },
    {
      "username": "Dr Tupi\u2642\ufe0e",
      "avatar": "",
      "comment": "the second time Jiwoo look at Kayden was \ud83e\udd23\ud83e\udd23\ud83e\udd23"
    },
    {
      "username": "asianlastgaem",
      "avatar": "",
      "comment": "kayden is going to become Raikou lol"
    },
    {
      "username": "pichupikapika\u2640\ufe0e",
      "avatar": "output/avatar/pichupikapika\u2640\ufe0e",
      "comment": "OMO! What a cliffhanger!!! Kayden!!"
    },
    {
      "username": "jay_ren",
      "avatar": "output/avatar/jay_ren",
      "comment": "Hahahaahahah.....kayden da best..... i hope he can that body of the mythical beast para astig heheh"
    },
    {
      "username": "jay_ren",
      "avatar": "output/avatar/jay_ren",
      "comment": "Hahahaahahah.....kayden da best..... i hope he can that body of the mythical beast para astig heheh"
    },
    {
      "username": "jay_ren",
      "avatar": "output/avatar/jay_ren",
      "comment": "Hahahaahahah.....kayden da best..... i hope he can that body of the mythical beast para astig heheh"
    },
    {
      "username": "jay_ren",
      "avatar": "output/avatar/jay_ren",
      "comment": "Hahahaahahah.....kayden da best..... i hope he can that body of the mythical beast para astig heheh"
    },
    {
      "username": "jay_ren",
      "avatar": "output/avatar/jay_ren",
      "comment": "Hahahaahahah.....kayden da best..... i hope he can that body of the mythical beast para astig heheh"
    },
    {
      "username": "jay_ren",
      "avatar": "output/avatar/jay_ren",
      "comment": "Hahahaahahah.....kayden da best..... i hope he can that body of the mythical beast para astig heheh"
    },
    {
      "username": "jay_ren",
      "avatar": "output/avatar/jay_ren",
      "comment": "Hahahaahahah.....kayden da best..... i hope he can that body of the mythical beast para astig heheh"
    },
    {
      "username": "jay_ren",
      "avatar": "output/avatar/jay_ren",
      "comment": "Hahahaahahah.....kayden da best..... i hope he can that body of the mythical beast para astig heheh"
    },
    {
      "username": "jay_ren",
      "avatar": "output/avatar/jay_ren",
      "comment": "Hahahaahahah.....kayden da best..... i hope he can that body of the mythical beast para astig heheh"
    },
    {
      "username": "jay_ren",
      "avatar": "output/avatar/jay_ren",
      "comment": "Hahahaahahah.....kayden da best..... i hope he can that body of the mythical beast para astig heheh"
    },
    {
      "username": "Lbeast\u2642\ufe0e",
      "avatar": "output/avatar/Lbeast\u2642\ufe0e",
      "comment": ""
    },
    {
      "username": "Fan_Girl_Noha",
      "avatar": "output/avatar/Fan_Girl_Noha",
      "comment": "Sauce please! :3"
    },
    {
      "username": "Lbeast\u2642\ufe0e",
      "avatar": "output/avatar/Lbeast\u2642\ufe0e",
      "comment": "Apocalypse Hunter"
    },
    {
      "username": "Sudamasairaz\u2640\ufe0e",
      "avatar": "output/avatar/Sudamasairaz\u2640\ufe0e",
      "comment": "It\u2019s supposed to be such a serious fight but it\u2019s too funny"
    }
  ]
}