{
  "title": "Eleceed - Chapter 117: Chapter 117 - Share Any Manga on MangaPark",
  "slug": "2847502-chapter-117-chapter-117",
  "url": "https://mangapark.net/title/87295-en-eleceed/2847502-chapter-117-chapter-117",
  "comments": [
    {
      "username": "JiuJitsuJesus",
      "avatar": "output/avatar/JiuJitsuJesus",
      "comment": "oh he's gonna cum dont worry lady"
    }
  ]
}