{
  "title": "Eleceed - Chapter 110: Chapter 110 - Share Any Manga on MangaPark",
  "slug": "2847495-chapter-110-chapter-110",
  "url": "https://mangapark.net/title/87295-en-eleceed/2847495-chapter-110-chapter-110",
  "comments": [
    {
      "username": "JiuJitsuJesus",
      "avatar": "output/avatar/JiuJitsuJesus",
      "comment": "triangles are the strongest structures in nature so BAM"
    }
  ]
}