{
  "title": "Eleceed - Chapter 100: Chapter 100 - Share Any Manga on MangaPark",
  "slug": "2847485-chapter-100-chapter-100",
  "url": "https://mangapark.net/title/87295-en-eleceed/2847485-chapter-100-chapter-100",
  "comments": [
    {
      "username": "JiuJitsuJesus",
      "avatar": "output/avatar/JiuJitsuJesus",
      "comment": "hahahah"
    }
  ]
}