{
  "title": "Eleceed - Chapter 77: Episode 77 - Share Any Manga on MangaPark",
  "slug": "2847462-chapter-77-episode-77",
  "url": "https://mangapark.net/title/87295-en-eleceed/2847462-chapter-77-episode-77",
  "comments": [
    {
      "username": "JiuJitsuJesus",
      "avatar": "output/avatar/JiuJitsuJesus",
      "comment": "lol he has \"fuck you money\" in the version of his backing."
    }
  ]
}