{
  "title": "Eleceed - Ch.136 - Share Any Manga on MangaPark",
  "slug": "4579585-ch-136",
  "url": "https://mangapark.net/title/87295-en-eleceed/4579585-ch-136",
  "comments": [
    {
      "username": "Codewar",
      "avatar": "",
      "comment": "The president is dead\nIs kaiden that strong?\ngo ask the president's dad?\nLol he also dead ffkdkdkdkdkdkkdkd"
    },
    {
      "username": "noblevonn\u2640\ufe0e",
      "avatar": "output/avatar/noblevonn\u2640\ufe0e.jpg",
      "comment": "WHO?!"
    },
    {
      "username": "Maurice_MemeEater\u2642\ufe0e",
      "avatar": "output/avatar/Maurice_MemeEater\u2642\ufe0e.jpg",
      "comment": "Ur mom ha gotem"
    },
    {
      "username": "Phelia\u2640\ufe0e",
      "avatar": "output/avatar/Phelia\u2640\ufe0e",
      "comment": "omg hahhah"
    },
    {
      "username": "Phelia\u2640\ufe0e",
      "avatar": "output/avatar/Phelia\u2640\ufe0e",
      "comment": "lmfao"
    },
    {
      "username": "U.1118389",
      "avatar": "",
      "comment": "Soobin x Iseul muahahahaaa \ud83d\ude08 my devilish ship"
    }
  ]
}