{
  "title": "Eleceed - Chapter 123 - Share Any Manga on MangaPark",
  "slug": "4952933-chapter-123",
  "url": "https://mangapark.net/title/87295-en-eleceed/4952933-chapter-123",
  "comments": [
    {
      "username": "The0dragon",
      "avatar": "output/avatar/The0dragon",
      "comment": "\ud83d\ude00"
    }
  ]
}