{
  "title": "Eleceed - Chapter 141 - Share Any Manga on MangaPark",
  "slug": "4969244-chapter-141",
  "url": "https://mangapark.net/title/87295-en-eleceed/4969244-chapter-141",
  "comments": [
    {
      "username": "ReverseFlow",
      "avatar": "output/avatar/ReverseFlow",
      "comment": "bro just lost his family jewels for that hahahahaha"
    }
  ]
}