{
  "title": "Eleceed - Chapter 118: Chapter 118 - Share Any Manga on MangaPark",
  "slug": "5562196-chapter-118-chapter-118",
  "url": "https://mangapark.net/title/87295-en-eleceed/5562196-chapter-118-chapter-118",
  "comments": [
    {
      "username": "JiuJitsuJesus",
      "avatar": "output/avatar/JiuJitsuJesus",
      "comment": "yeah you will buddy. yeah you will..."
    }
  ]
}