{
  "title": "Eleceed - Chapter 96: Chapter 96 - Share Any Manga on MangaPark",
  "slug": "5562262-chapter-96-chapter-96",
  "url": "https://mangapark.net/title/87295-en-eleceed/5562262-chapter-96-chapter-96",
  "comments": [
    {
      "username": "Celam07\u2642\ufe0e",
      "avatar": "output/avatar/Celam07\u2642\ufe0e",
      "comment": "\ud83e\udd79\ud83e\udd79\ud83e\udd79\ud83e\udd79\ud83e\udd79\nCat daddy to the rescue"
    }
  ]
}