{
  "title": "Eleceed - Ch.141 - Share Any Manga on MangaPark",
  "slug": "5936846-ch-141",
  "url": "https://mangapark.net/title/87295-en-eleceed/5936846-ch-141",
  "comments": [
    {
      "username": "Codewar",
      "avatar": "",
      "comment": "Holly mother fluffing craaaaiiizzz\nHe didn't even know what hes actually doin and what happen to him right now, akakakka"
    },
    {
      "username": "RheaLea\u2640\ufe0e",
      "avatar": "",
      "comment": "Poor Curtin."
    },
    {
      "username": "DuckGod",
      "avatar": "output/avatar/DuckGod",
      "comment": "Lol, my guy is no longer,,,"
    },
    {
      "username": "Bulbulito_Bayagbag",
      "avatar": "output/avatar/Bulbulito_Bayagbag",
      "comment": "Oh my f*cking god this chapters are so hilarious"
    }
  ]
}