{
  "title": "Solo Leveling - Ch.031 - Share Any Manga on MangaPark",
  "slug": "1321261-ch-031",
  "url": "https://mangapark.net/title/75577-en-solo-leveling/1321261-ch-031",
  "comments": [
    {
      "username": "Hakurou\u2642\ufe0e",
      "avatar": "output/avatar/Hakurou\u2642\ufe0e",
      "comment": "superior? damn thats a good fucking joke, i can see that you're gonna die, I'm just re-reading this tho"
    },
    {
      "username": "Bigboichaolin",
      "avatar": "output/avatar/Bigboichaolin",
      "comment": "Superior \ud83d\ude02\nWe making jokes now?"
    },
    {
      "username": "DonttrustanyonE\u2642\ufe0e",
      "avatar": "output/avatar/DonttrustanyonE\u2642\ufe0e",
      "comment": "Dammmnnnn lets goo!!"
    },
    {
      "username": "TheDebauchery",
      "avatar": "output/avatar/TheDebauchery",
      "comment": "The protagonist has complete plot-armour now, which is quite frankly ridiculous, as it means there is no sort of narrative tension in situations like this. Once he is duelling one of these psychos one-on-one, the outcome is inevitable by narrative causality... which makes it awfully dull."
    },
    {
      "username": "EmilioAliotta",
      "avatar": "output/avatar/EmilioAliotta.jpg",
      "comment": "thats how his powers work my guy its not plot armor believe me"
    },
    {
      "username": "TheDebauchery",
      "avatar": "output/avatar/TheDebauchery",
      "comment": "I don't believe you. He has plot-armour and it carries him through to the end of the plot. He can't even die without coming back stronger 5 minutes later."
    },
    {
      "username": "ConnorMerrick966\u2642\ufe0e",
      "avatar": "output/avatar/ConnorMerrick966\u2642\ufe0e",
      "comment": "You get what u pay for lol, these types always are like that"
    },
    {
      "username": "U.1101420",
      "avatar": "output/avatar/U.1101420.jpg",
      "comment": "I just feel you were paid to run down the manga really"
    },
    {
      "username": "TheDebauchery",
      "avatar": "output/avatar/TheDebauchery",
      "comment": "What could have ever given you the idea that I was paid to express my opinions?\nI should be so lucky. If I were paid to criticise things, I'd be rich.\nBut I criticise things because nobody else does. Because the world is full of half-arsed garbage and nobody else bothers to even mention it.\nI say the things that I'd want to know myself in advance, but never get the chance because most people are afraid to be the first to criticise something.\nThat is the motive behind most of my actions. I try to leave a path behind me like I'd want to see ahead of me... to the best of my ability."
    },
    {
      "username": "YoniLA",
      "avatar": "output/avatar/YoniLA.png",
      "comment": "The hero this city needed"
    },
    {
      "username": "User.730500",
      "avatar": "output/avatar/User.730500.jpg",
      "comment": "Man I got excited when I didn\u2019t see your whiny ass for 2 chapters. For someone who loves to talk about how much they dislike this, you sure are sticking around for the long haul. Just leave a review at the front and stop griping about every little thing that only you dislike. No one cares that you don\u2019t like certain things about this story. You are not that important."
    },
    {
      "username": "TheDebauchery",
      "avatar": "output/avatar/TheDebauchery",
      "comment": "Of course I'm not important. Nobody is.\nEveryone is the protagonist of their own life, but to everyone else I'm as much a random as they are to me.\nBut so what?\nYou'd figure people would learn to simply ignore me if they don't care, but apparently they can't. Go figure. You people are taking me FAR more seriously than I ever did.\n.\nAnd no. Not \"sticking\".\nStuck. Past tense. I stuck with it through to the end. And I complained all the way through. It is already done.\nToo bad for you and the other randoms who can't ignore me, hmm?"
    },
    {
      "username": "Floyd7525",
      "avatar": "output/avatar/Floyd7525",
      "comment": "You might be stupid. He is the main character he's going to win and not die so the story can go on you might honestly be stupid also ever Mc has plot Armour"
    },
    {
      "username": "TheDebauchery",
      "avatar": "output/avatar/TheDebauchery",
      "comment": "You're unqualified to make any of those assessments."
    },
    {
      "username": "Floyd7525",
      "avatar": "output/avatar/Floyd7525",
      "comment": "I'm very qualified"
    },
    {
      "username": "Floyd7525",
      "avatar": "output/avatar/Floyd7525",
      "comment": "Without an Mc there is no plot and without plot Armour most main characters die pretty quickly into there Series I don't really understand what you're expecting. Are you like expecting him to die?"
    },
    {
      "username": "TheDebauchery",
      "avatar": "output/avatar/TheDebauchery",
      "comment": "I quite clearly expressed the opposite, retard. There is no ambiguity. Why even ask?"
    },
    {
      "username": "Floyd7525",
      "avatar": "output/avatar/Floyd7525",
      "comment": "But what you say doesn't make sense what mc doesn't have complete plot armor?"
    }
  ]
}