{
  "title": "Solo Leveling - Ch.040 - Share Any Manga on MangaPark",
  "slug": "1324258-ch-040",
  "url": "https://mangapark.net/title/75577-en-solo-leveling/1324258-ch-040",
  "comments": [
    {
      "username": "Wibawa Lala",
      "avatar": "output/avatar/Wibawa Lala.png",
      "comment": "How can intelligence stat just 6 ?"
    },
    {
      "username": "raanga",
      "avatar": "output/avatar/raanga",
      "comment": "i think its the same stat as your english skills"
    },
    {
      "username": "Hakurou\u2642\ufe0e",
      "avatar": "output/avatar/Hakurou\u2642\ufe0e",
      "comment": "imagine maxing it \ud83d\udc80\ud83d\udc80"
    },
    {
      "username": "Floyd7525",
      "avatar": "output/avatar/Floyd7525",
      "comment": "Probably a error because it was like 51 q couple chapters back"
    },
    {
      "username": "Kazumi_yuh",
      "avatar": "output/avatar/Kazumi_yuh.jpg",
      "comment": "Wasn\u2019t it 11 before it went down.."
    },
    {
      "username": "DioEAAB\u2642\ufe0e",
      "avatar": "output/avatar/DioEAAB\u2642\ufe0e",
      "comment": "Theres an up and a down button besides the stats, so i guess he can lower it..?"
    },
    {
      "username": "Kazumi_yuh",
      "avatar": "output/avatar/Kazumi_yuh",
      "comment": "Wasn\u2019t it 11 before it went down.."
    },
    {
      "username": "TheDebauchery",
      "avatar": "output/avatar/TheDebauchery",
      "comment": "He has been getting progressively stupider as the plot progresses."
    },
    {
      "username": "DonttrustanyonE\u2642\ufe0e",
      "avatar": "output/avatar/DonttrustanyonE\u2642\ufe0e",
      "comment": "\ud83d\udc4d"
    },
    {
      "username": "Undesirable",
      "avatar": "output/avatar/Undesirable",
      "comment": "Now that\u2019s some insane plot armor"
    },
    {
      "username": "TheDebauchery",
      "avatar": "output/avatar/TheDebauchery",
      "comment": "Does he get a pop-up every time he crits? That must get annoying.\nSo... I guess now he has to farm this dungeon over and over again until he gets a full Red Knight set."
    },
    {
      "username": "EmilioAliotta",
      "avatar": "output/avatar/EmilioAliotta",
      "comment": "this is a one time dungeon"
    },
    {
      "username": "TheDebauchery",
      "avatar": "output/avatar/TheDebauchery",
      "comment": "Yeah, but he could have remained there to farm the loot. He just chose not to, because he doesn't have the right mentality."
    },
    {
      "username": "YoniLA",
      "avatar": "output/avatar/YoniLA",
      "comment": "He cant farm the red knight set he killed the only red knight"
    },
    {
      "username": "U.1139128",
      "avatar": "output/avatar/U.1139128",
      "comment": "It\u2019s an \u201cinstance dungeon\u201d which means nothing will respawn and if he goes out it\u2019s over. Ie can\u2019t farm anything besides what he already has, and you wasted all our time with this post."
    }
  ]
}