{
  "title": "Solo Leveling - Ch.043 - Share Any Manga on MangaPark",
  "slug": "1343519-ch-043",
  "url": "https://mangapark.net/title/75577-en-solo-leveling/1343519-ch-043",
  "comments": [
    {
      "username": "Kiyotaka_Ayanokouji",
      "avatar": "output/avatar/Kiyotaka_Ayanokouji",
      "comment": "The dagger throw pls\ud83d\ude2d"
    },
    {
      "username": "DonttrustanyonE\u2642\ufe0e",
      "avatar": "output/avatar/DonttrustanyonE\u2642\ufe0e",
      "comment": "\ud83d\udc4d"
    },
    {
      "username": "TheDebauchery",
      "avatar": "output/avatar/TheDebauchery",
      "comment": "Alternatively, just use a mace rather than that fancypants piece of shit."
    },
    {
      "username": "Paowiii",
      "avatar": "output/avatar/Paowiii",
      "comment": "Why don't you use it yourself"
    },
    {
      "username": "DioEAAB\u2642\ufe0e",
      "avatar": "output/avatar/DioEAAB\u2642\ufe0e",
      "comment": "Bro mad\ud83d\ude2d"
    },
    {
      "username": "Banana_Mans101",
      "avatar": "",
      "comment": "Why you so mad bro"
    },
    {
      "username": "tonicboy",
      "avatar": "output/avatar/tonicboy.jpg",
      "comment": "he is used to daggers if he switched it will hinder him"
    }
  ]
}