{
  "title": "Solo Leveling - Ch.52 - Share Any Manga on MangaPark",
  "slug": "1763780-ch-52",
  "url": "https://mangapark.net/title/75577-en-solo-leveling/1763780-ch-52",
  "comments": [
    {
      "username": "Seapril",
      "avatar": "output/avatar/Seapril",
      "comment": "Damn that face and smile is the best"
    },
    {
      "username": "raanga",
      "avatar": "output/avatar/raanga",
      "comment": "even re-reading this, i still love that panel"
    },
    {
      "username": "BigDongZhongli",
      "avatar": "output/avatar/BigDongZhongli.jpg",
      "comment": "Hot af"
    },
    {
      "username": "Syudouu\u2642\ufe0e",
      "avatar": "output/avatar/Syudouu\u2642\ufe0e.jpg",
      "comment": "Which one \ud83d\ude33\ud83d\ude33"
    },
    {
      "username": "Kazumi_yuh",
      "avatar": "output/avatar/Kazumi_yuh",
      "comment": "All of them \ud83d\ude0f\ud83d\ude29"
    },
    {
      "username": "Kazumi_yuh",
      "avatar": "output/avatar/Kazumi_yuh",
      "comment": "All of them \ud83d\ude0f\ud83d\ude29"
    },
    {
      "username": "Kazumi_yuh",
      "avatar": "output/avatar/Kazumi_yuh",
      "comment": "All of them \ud83d\ude0f\ud83d\ude29"
    },
    {
      "username": "Kazumi_yuh",
      "avatar": "output/avatar/Kazumi_yuh",
      "comment": "All of them \ud83d\ude0f\ud83d\ude29"
    },
    {
      "username": "Kazumi_yuh",
      "avatar": "output/avatar/Kazumi_yuh",
      "comment": "All of them \ud83d\ude0f\ud83d\ude29"
    },
    {
      "username": "DioEAAB\u2642\ufe0e",
      "avatar": "output/avatar/DioEAAB\u2642\ufe0e",
      "comment": "Chill bro\u270b"
    },
    {
      "username": "Wibawa Lala",
      "avatar": "",
      "comment": "The way he smiled ahahaha"
    },
    {
      "username": "DonttrustanyonE\u2642\ufe0e",
      "avatar": "output/avatar/DonttrustanyonE\u2642\ufe0e",
      "comment": "Let's go!!!"
    },
    {
      "username": "Gull02\u2642\ufe0e",
      "avatar": "output/avatar/Gull02\u2642\ufe0e",
      "comment": "Goddamn \ud83d\ude02\ud83d\udc4d"
    },
    {
      "username": "User.464026",
      "avatar": "",
      "comment": "Fuck!! That gave me goosebumps\ud83d\udd25\ud83d\udd25"
    },
    {
      "username": "TheDebauchery",
      "avatar": "output/avatar/TheDebauchery",
      "comment": "Who needs Valerian Steel?"
    },
    {
      "username": "Paowiii",
      "avatar": "output/avatar/Paowiii",
      "comment": "Steel up your arse"
    }
  ]
}