{
  "title": "Solo Leveling - Ch.054 - Share Any Manga on MangaPark",
  "slug": "1821115-ch-054",
  "url": "https://mangapark.net/title/75577-en-solo-leveling/1821115-ch-054",
  "comments": [
    {
      "username": "FeEDTA2",
      "avatar": "output/avatar/FeEDTA2",
      "comment": "MAKE HIM UR SLAVE"
    },
    {
      "username": "User.718886",
      "avatar": "output/avatar/User.718886.jpg",
      "comment": "UWAAAA"
    },
    {
      "username": "Hakurou\u2642\ufe0e",
      "avatar": "output/avatar/Hakurou\u2642\ufe0e",
      "comment": "UWAAA"
    },
    {
      "username": "Hakurou\u2642\ufe0e",
      "avatar": "output/avatar/Hakurou\u2642\ufe0e",
      "comment": "UWAAA"
    },
    {
      "username": "Hakurou\u2642\ufe0e",
      "avatar": "output/avatar/Hakurou\u2642\ufe0e",
      "comment": "YES"
    },
    {
      "username": "waSAb1",
      "avatar": "output/avatar/waSAb1",
      "comment": "stop it get some help"
    },
    {
      "username": "nobodysanime\u2640\ufe0e",
      "avatar": "",
      "comment": "Stfu"
    },
    {
      "username": "Bigboichaolin",
      "avatar": "output/avatar/Bigboichaolin",
      "comment": "\"EVIL LAUGH\" can be hear near by...."
    },
    {
      "username": "Bigboichaolin",
      "avatar": "output/avatar/Bigboichaolin",
      "comment": "Sorry I know this comment is cringey hate all you want"
    },
    {
      "username": "DonttrustanyonE\u2642\ufe0e",
      "avatar": "output/avatar/DonttrustanyonE\u2642\ufe0e",
      "comment": "Yooooo damn"
    },
    {
      "username": "desert_rose888\u2640\ufe0e",
      "avatar": "output/avatar/desert_rose888\u2640\ufe0e.jpg",
      "comment": "Aw his shadows are cute \ud83e\udd70\ud83d\ude0a"
    },
    {
      "username": "CliB3Nz\u2642\ufe0e",
      "avatar": "output/avatar/CliB3Nz\u2642\ufe0e",
      "comment": "look at them cheering lmao"
    },
    {
      "username": "TheDebauchery",
      "avatar": "output/avatar/TheDebauchery",
      "comment": "Yeah yeah.\nKill stronger enemies.\nRes stronger enemies.\nGet stronger minions.\nWhen is his newtype telekinesis going to level up?\nFor that matter, what about his soldier capacity? I guess it wouldn't do much good if he can't get more mana because his Int is too low."
    },
    {
      "username": "Paowiii",
      "avatar": "output/avatar/Paowiii",
      "comment": "Your iq is low"
    },
    {
      "username": "Banana_Mans101",
      "avatar": "",
      "comment": "Too low"
    }
  ]
}