{
  "title": "Solo Leveling - Ch.055 - Share Any Manga on MangaPark",
  "slug": "1852516-ch-055",
  "url": "https://mangapark.net/title/75577-en-solo-leveling/1852516-ch-055",
  "comments": [
    {
      "username": "User.884216",
      "avatar": "output/avatar/User.884216.png",
      "comment": "jin-woo you are so oblivious"
    },
    {
      "username": "koiyata",
      "avatar": "output/avatar/koiyata",
      "comment": "Aren\u2019t most mc\u2019s oblivious in general? \ud83d\ude02"
    },
    {
      "username": "waSAb1",
      "avatar": "output/avatar/waSAb1",
      "comment": "stop it get some help"
    },
    {
      "username": "waSAb1",
      "avatar": "output/avatar/waSAb1",
      "comment": "stop it get some help"
    },
    {
      "username": "Hakurou\u2642\ufe0e",
      "avatar": "output/avatar/Hakurou\u2642\ufe0e",
      "comment": "ah thats sad he did not make the elves boss a shadow"
    },
    {
      "username": "User.751709",
      "avatar": "",
      "comment": "It's good that Sung doesn't get the shadow every time tho. it would be kinda broke as hell if he could :/"
    },
    {
      "username": "Randomdantz",
      "avatar": "output/avatar/Randomdantz.png",
      "comment": "He's not Ash. He can't catch them all. Lol"
    },
    {
      "username": "kgrafyx\u2640\ufe0e",
      "avatar": "output/avatar/kgrafyx\u2640\ufe0e",
      "comment": "Neither could Ash. RIP Entei"
    },
    {
      "username": "waSAb1",
      "avatar": "output/avatar/waSAb1",
      "comment": "stop it get some help"
    },
    {
      "username": "waSAb1",
      "avatar": "output/avatar/waSAb1",
      "comment": "stop it get some help"
    },
    {
      "username": "Hakurou\u2642\ufe0e",
      "avatar": "output/avatar/Hakurou\u2642\ufe0e",
      "comment": "fuck off"
    },
    {
      "username": "waSAb1",
      "avatar": "output/avatar/waSAb1",
      "comment": "stop it get some help, go touch some grass"
    },
    {
      "username": "Hakurou\u2642\ufe0e",
      "avatar": "output/avatar/Hakurou\u2642\ufe0e",
      "comment": "theres no grass here dumbass its all dirt"
    },
    {
      "username": "YOUR_FBI_agent",
      "avatar": "output/avatar/YOUR_FBI_agent",
      "comment": "forever a virgin \ud83d\ude14\ud83d\ude14"
    },
    {
      "username": "waSAb1",
      "avatar": "output/avatar/waSAb1",
      "comment": "WHATT!!what kind of place r u living at if you rlly mean theres no grass and all dirt u could be living in desert but only 33.27% of earth is desert and have internet access would be rlly hard there beside only 1.734% ppl live in desert\ud83e\udd14\ud83e\udd14 and yes i am an dumbass"
    },
    {
      "username": "Hakurou\u2642\ufe0e",
      "avatar": "output/avatar/Hakurou\u2642\ufe0e",
      "comment": "yes you're a dumbass the grass got poured up by a stone cause infront of my house is a new rent house"
    },
    {
      "username": "waSAb1",
      "avatar": "output/avatar/waSAb1",
      "comment": "amazing i didn't know that thanks for sharing this knowledge\ud83d\ude18"
    },
    {
      "username": "waSAb1",
      "avatar": "output/avatar/waSAb1",
      "comment": "WHATT!!what kind of place r u living at if you rlly mean theres no grass and all dirt u could be living in desert but only 33% of earth is desert and have internet access would be rlly hard there beside only 1.734% ppl live in desert\ud83e\udd14\ud83e\udd14"
    },
    {
      "username": "User.683796",
      "avatar": "",
      "comment": "Damn, I'd kill to have that big of a leg room..."
    },
    {
      "username": "Bigboichaolin",
      "avatar": "output/avatar/Bigboichaolin",
      "comment": "Sad he didn't manage to make the elf into a shadow \ud83d\ude1e"
    },
    {
      "username": "User.1008647",
      "avatar": "",
      "comment": "-.-"
    },
    {
      "username": "DonttrustanyonE\u2642\ufe0e",
      "avatar": "output/avatar/DonttrustanyonE\u2642\ufe0e",
      "comment": "Yoooooo"
    },
    {
      "username": "U.1109388",
      "avatar": "",
      "comment": "We love you edp"
    },
    {
      "username": "LeGlazer",
      "avatar": "",
      "comment": "\"We\" ?"
    },
    {
      "username": "U.1137072",
      "avatar": "output/avatar/U.1137072.jpg",
      "comment": "Side character Bro she is minor\nmc: and"
    },
    {
      "username": "Chicken_Wonder",
      "avatar": "",
      "comment": ""
    }
  ]
}