{
  "title": "Solo Leveling - Ch.059 - Share Any Manga on MangaPark",
  "slug": "2022951-ch-059",
  "url": "https://mangapark.net/title/75577-en-solo-leveling/2022951-ch-059",
  "comments": [
    {
      "username": "TheDebauchery",
      "avatar": "output/avatar/TheDebauchery",
      "comment": "I really can't keep track of all these Korean names.\nI'm used to Japanese names. Can tell which are male or female for the most part.\nKorean though... they don't mean a damned thing to me. I can barely distinguish them from Chinese names half the time... and that mostly because of the word structure.\nIt is all just a load of Kok-Dong-Wang-Dik to me."
    },
    {
      "username": "EmilioAliotta",
      "avatar": "output/avatar/EmilioAliotta",
      "comment": "the first name you read is the family/last name, the secon one is the individual name , often comprised of two short names"
    },
    {
      "username": "TheDebauchery",
      "avatar": "output/avatar/TheDebauchery",
      "comment": "That part isn't really the difficult bit. I mean almost all Asian names go family-name first.\nI mean I know what a lot of Japanese names mean (somehow)... but I don't know any Korean. And it just sounds like a bunch of rude words chained together."
    },
    {
      "username": "Paowiii",
      "avatar": "output/avatar/Paowiii",
      "comment": "Lemmie guess, you have the most common name in the world"
    },
    {
      "username": "U.1144650",
      "avatar": "output/avatar/U.1144650.png",
      "comment": "Tr"
    },
    {
      "username": "LeGlazer",
      "avatar": "",
      "comment": "I've read hundreds of manhwas by now, and I don't think I've ever been able to remember a single name, some from tower of god cuz they're kinda easy"
    },
    {
      "username": "Mashle\u2642\ufe0e",
      "avatar": "output/avatar/Mashle\u2642\ufe0e",
      "comment": "Ok terry chill with that 12 iq of your"
    },
    {
      "username": "Lunaria95\u2640\ufe0e",
      "avatar": "output/avatar/Lunaria95\u2640\ufe0e",
      "comment": "Need to watch K_dramas and gear the names, it's way better to learn it this way than just reading it, it can be a bit hard if you don't know the rules of the language, and by the way Korean is by far easier than Japanese."
    },
    {
      "username": "DonttrustanyonE\u2642\ufe0e",
      "avatar": "output/avatar/DonttrustanyonE\u2642\ufe0e",
      "comment": "Lets gooooo"
    }
  ]
}