{
  "title": "Solo Leveling - Ch.064 - Share Any Manga on MangaPark",
  "slug": "2105978-ch-064",
  "url": "https://mangapark.net/title/75577-en-solo-leveling/2105978-ch-064",
  "comments": [
    {
      "username": "User.783217",
      "avatar": "",
      "comment": "Trash like this is quite annoying."
    },
    {
      "username": "SJsucks\ud83d\ude0b\u2642\ufe0e",
      "avatar": "output/avatar/SJsucks\ud83d\ude0b\u2642\ufe0e",
      "comment": "I thought that cocky bastard will be a great addition to jin woo's pets but it seems like he might die before that."
    },
    {
      "username": "Reina_",
      "avatar": "output/avatar/Reina_.jpg",
      "comment": "You\u2019re welcome to try, but I think we all can guess your ending. You would expect more from an S rank hunter right? Other S rank seems to be able to sense and not underestimate MC, but this one seems like he\u2019s unable to gauge even the daddy\u2019s strength"
    },
    {
      "username": "DonttrustanyonE\u2642\ufe0e",
      "avatar": "output/avatar/DonttrustanyonE\u2642\ufe0e",
      "comment": "Trash is trash"
    },
    {
      "username": "Wibawa Lala",
      "avatar": "",
      "comment": "Actually the conversation with the president isnt as naive as this..\nIts better in LN than in manhwa"
    },
    {
      "username": "EuniceSuso",
      "avatar": "output/avatar/EuniceSuso",
      "comment": "After you healed you gonna be a shadow named greed a freaking translator skill lmao iron is still the best shadow tanker"
    },
    {
      "username": "U.1119441",
      "avatar": "",
      "comment": "DON'T SPOIL IDIOT"
    },
    {
      "username": "Gone_Gone",
      "avatar": "output/avatar/Gone_Gone",
      "comment": "delete this ur gonna spoil it for ppl"
    },
    {
      "username": "SJsucks\ud83d\ude0b\u2642\ufe0e",
      "avatar": "output/avatar/SJsucks\ud83d\ude0b\u2642\ufe0e",
      "comment": "I thought that cocky bastard will be a great addition to jin woo's pets but it' seems like he might die before that."
    },
    {
      "username": "pechayyy",
      "avatar": "output/avatar/pechayyy.jpg",
      "comment": "Syempre di ka papatalo. Na apakan ba naman ang Ego mo eh \ud83d\ude0a\ud83d\ude06"
    },
    {
      "username": "Floyd7525",
      "avatar": "output/avatar/Floyd7525",
      "comment": "Why yall gotta spoil for others"
    },
    {
      "username": "JesusWithBlackAirforces",
      "avatar": "output/avatar/JesusWithBlackAirforces",
      "comment": "Bro sit the fuck down. You know you brother well enough he bit more than he can chew and got killed. You did the same thing with your op's dad and lost \ud83d\ude2d\ud83d\ude2d"
    },
    {
      "username": "waSAb1",
      "avatar": "output/avatar/waSAb1",
      "comment": "GET SOME HELPPP"
    }
  ]
}