{
  "title": "Solo Leveling - Ch.074 - Share Any Manga on MangaPark",
  "slug": "2155957-ch-074",
  "url": "https://mangapark.net/title/75577-en-solo-leveling/2155957-ch-074",
  "comments": [
    {
      "username": "Crazy2303\u2642\ufe0e",
      "avatar": "output/avatar/Crazy2303\u2642\ufe0e.png",
      "comment": "I see a zodiac signs"
    },
    {
      "username": "U.1148188",
      "avatar": "output/avatar/U.1148188.png",
      "comment": "I see the fortnite emote wheel"
    },
    {
      "username": "Pladen\u2640\ufe0e",
      "avatar": "output/avatar/Pladen\u2640\ufe0e",
      "comment": "Fuck you"
    },
    {
      "username": "U.1148188",
      "avatar": "output/avatar/U.1148188",
      "comment": "You too \ud83d\ude1a\ud83e\udd70\ud83e\udd70"
    },
    {
      "username": "Pladen\u2640\ufe0e",
      "avatar": "output/avatar/Pladen\u2640\ufe0e",
      "comment": "You 3 with love \u2764\ufe0f \ud83d\ude0d \ud83d\udc96"
    },
    {
      "username": "U.1148188",
      "avatar": "output/avatar/U.1148188",
      "comment": "Fuck you and your whole family 4 times\ud83d\ude1a\ud83e\udd70\ud83e\udd70\ud83d\udc96\u2764\ufe0f\u2764\ufe0f"
    },
    {
      "username": "Pladen\u2640\ufe0e",
      "avatar": "output/avatar/Pladen\u2640\ufe0e",
      "comment": "\u2728\ufe0f\u2728\ufe0f\u2728\ufe0f\u2728\ufe0f\ud83d\udc9e\ud83d\udc9d\u2764\ufe0f\u200d\ud83e\ude79\ud83d\udc99\ud83d\ude18\ud83d\ude18\ud83d\udc9e\ud83d\udc94\ud83d\udc97\u2728\ufe0f\u2728\ufe0f\ud83d\udc94\ud83d\ude3b\ud83e\udd70\ud83e\udd29\u2728\ufe0fFuck you and your bloodline for eternity in hell\u2728\ufe0f\ud83e\ude77\u2764\ufe0f\u200d\ud83d\udd25\u2764\ufe0f\u200d\ud83e\ude79\ud83d\udc98\ud83e\ude77\ud83e\udde1\ud83d\udc95\u2728\ufe0f\u2728\ufe0f\u2728\ufe0f\ud83d\udc9d\ud83d\udc93\ud83d\udc9d\ud83d\udc9e\ud83e\udd70\u2728\ufe0f\u2728\ufe0f\u2728\ufe0f\ud83e\udd70\ud83e\udd29\ud83d\ude18\ud83d\ude18"
    },
    {
      "username": "U.1148188",
      "avatar": "output/avatar/U.1148188",
      "comment": "You came from the same ancestors as me 6000 years ago so essentially you are fucking your bloodline too its my perfect victory"
    },
    {
      "username": "Pladen\u2640\ufe0e",
      "avatar": "output/avatar/Pladen\u2640\ufe0e",
      "comment": "\ud83d\udc93\ud83d\udc9d\ud83e\ude77\u2763\ufe0f\u2764\ufe0f\u200d\ud83e\ude79\ud83d\udc94fuck you I win that means I also fuck my great grandma\ud83d\udc93\ud83d\udc94\ud83d\udc93\ud83d\udc9f\ud83e\ude77\ud83d\udc94\u2764\ufe0f\u200d\ud83e\ude79\ud83d\udc9c\ud83d\udc9a\ud83e\udd0e\ud83e\ude76\ud83d\udc9a\ud83d\udc9c\ud83d\udc99\ud83d\udc9e"
    },
    {
      "username": "U.1148188",
      "avatar": "output/avatar/U.1148188",
      "comment": "Ayo i understand if its a milf but the great grandma"
    },
    {
      "username": "Pladen\u2640\ufe0e",
      "avatar": "output/avatar/Pladen\u2640\ufe0e",
      "comment": "She also milf wyd"
    },
    {
      "username": "U.1148188",
      "avatar": "output/avatar/U.1148188",
      "comment": "Damn you got me good im tryna hit it too you got them digits or does she take fax machine"
    },
    {
      "username": "Pladen\u2640\ufe0e",
      "avatar": "output/avatar/Pladen\u2640\ufe0e",
      "comment": "Yeah her number waaas 8"
    },
    {
      "username": "U.1148188",
      "avatar": "output/avatar/U.1148188",
      "comment": "Shit she one if the ogs damn first time ive seen a single digit number iont got a fax machine \ud83d\ude1e"
    },
    {
      "username": "Pladen\u2640\ufe0e",
      "avatar": "output/avatar/Pladen\u2640\ufe0e",
      "comment": "Don't worry she got me other num write it down\n78 on phone"
    },
    {
      "username": "U.1148188",
      "avatar": "output/avatar/U.1148188",
      "comment": "Bruh do i tell a royal messenger party to send it or sum"
    },
    {
      "username": "Pladen\u2640\ufe0e",
      "avatar": "output/avatar/Pladen\u2640\ufe0e",
      "comment": "On phone call her\nShe still has the raspberry phone"
    },
    {
      "username": "U.1148188",
      "avatar": "output/avatar/U.1148188",
      "comment": "Shi iont got them raspberry phones is your grandma a dryad or sum i didn't know they had phones made out of raspberries"
    },
    {
      "username": "Pladen\u2640\ufe0e",
      "avatar": "output/avatar/Pladen\u2640\ufe0e",
      "comment": "Nah man she got the og\nIphone -1"
    },
    {
      "username": "U.1148188",
      "avatar": "output/avatar/U.1148188",
      "comment": "Ohhh shi i neva knew i was thinking since the grandma's number is there y not just the the mom right 2 milfs is better than one\ud83d\udc4c\ud83d\udc4c\ud83d\udc4c\ud83d\udcaf\ud83d\udcaf\ud83d\udcaf%%%"
    },
    {
      "username": "Pladen\u2640\ufe0e",
      "avatar": "output/avatar/Pladen\u2640\ufe0e",
      "comment": "Both\nBoth is good"
    },
    {
      "username": "U.1148188",
      "avatar": "output/avatar/U.1148188",
      "comment": "See you get what i mean if both is good then can i yk get both digits"
    },
    {
      "username": "Pladen\u2640\ufe0e",
      "avatar": "output/avatar/Pladen\u2640\ufe0e",
      "comment": "Milf 23567890567\nGilf fax 8 num 78"
    },
    {
      "username": "U.1148188",
      "avatar": "",
      "comment": "Thx homie imma be busy smashing cheeks now"
    },
    {
      "username": "U.1148188",
      "avatar": "output/avatar/U.1148188",
      "comment": "I thought about sum if you have a sister thats 18+ ofc yk maybe we can turn it into 3 instead of 2 since i already got the og might as well get the newest version"
    },
    {
      "username": "Pladen\u2640\ufe0e",
      "avatar": "output/avatar/Pladen\u2640\ufe0e",
      "comment": "Nah pause\nWait you smart"
    },
    {
      "username": "U.1148188",
      "avatar": "output/avatar/U.1148188",
      "comment": "I already knew that but can you drop the sisters digits\nPls\ud83d\ude0f"
    },
    {
      "username": "Pladen\u2640\ufe0e",
      "avatar": "output/avatar/Pladen\u2640\ufe0e",
      "comment": "5074382345"
    },
    {
      "username": "U.1148188",
      "avatar": "output/avatar/U.1148188",
      "comment": "Thx Aight you already know what im gonna ask at this point"
    },
    {
      "username": "Pladen\u2640\ufe0e",
      "avatar": "output/avatar/Pladen\u2640\ufe0e",
      "comment": "What ?"
    },
    {
      "username": "U.1148188",
      "avatar": "output/avatar/U.1148188",
      "comment": "I mean i already got 2 of the ogs but only 1 of the new version so id need 1 more to make if fair for the new gen right"
    },
    {
      "username": "Pladen\u2640\ufe0e",
      "avatar": "output/avatar/Pladen\u2640\ufe0e",
      "comment": "Not my younger sister\nShe doesn't even have a phone"
    },
    {
      "username": "U.1148188",
      "avatar": "output/avatar/U.1148188",
      "comment": "Bruh not the younger one i already got into problems with the fbi im asking a for a friend maybe a cousin"
    },
    {
      "username": "Pladen\u2640\ufe0e",
      "avatar": "output/avatar/Pladen\u2640\ufe0e",
      "comment": "Hmmmm wait\nI have my friend's Emily\n53885791389"
    },
    {
      "username": "Kazumi_yuh",
      "avatar": "output/avatar/Kazumi_yuh",
      "comment": "Cha plays Minecraft"
    },
    {
      "username": "SJsucks\ud83d\ude0b\u2642\ufe0e",
      "avatar": "output/avatar/SJsucks\ud83d\ude0b\u2642\ufe0e",
      "comment": "Behold,\nCha is here to protect the day......With a pickaxe."
    },
    {
      "username": "Laskar Pradnyan",
      "avatar": "output/avatar/Laskar Pradnyan",
      "comment": "That \"Yup\" is literally the CHADDEST"
    },
    {
      "username": "U.1136669",
      "avatar": "output/avatar/U.1136669.jpg",
      "comment": "Ahhhh i love these two so much \ud83d\ude02\ud83d\ude02"
    },
    {
      "username": "Laskar Pradnyan",
      "avatar": "output/avatar/Laskar Pradnyan",
      "comment": "That \"Yup\" is literally the CHADDEST"
    },
    {
      "username": "DioEAAB\u2642\ufe0e",
      "avatar": "output/avatar/DioEAAB\u2642\ufe0e",
      "comment": "Make him ur se- i mean slaves"
    },
    {
      "username": "DonttrustanyonE\u2642\ufe0e",
      "avatar": "output/avatar/DonttrustanyonE\u2642\ufe0e",
      "comment": "Lets gooooo"
    },
    {
      "username": "JesusWithBlackAirforces",
      "avatar": "output/avatar/JesusWithBlackAirforces",
      "comment": "That 1 orc got triple teamed"
    }
  ]
}