{
  "title": "Solo Leveling - Ch.45 - Share Any Manga on MangaPark",
  "slug": "2161089-ch-45",
  "url": "https://mangapark.net/title/75577-en-solo-leveling/2161089-ch-45",
  "comments": [
    {
      "username": "Suiton\u2642\ufe0e",
      "avatar": "output/avatar/Suiton\u2642\ufe0e",
      "comment": "His army looks sick"
    },
    {
      "username": "U.1137437",
      "avatar": "",
      "comment": "fr"
    },
    {
      "username": "LordFrieza",
      "avatar": "output/avatar/LordFrieza.png",
      "comment": "Overpowered duo"
    }
  ]
}