{
  "title": "Solo Leveling - Vol.1 Ch.89 - Share Any Manga on MangaPark",
  "slug": "2273541-vol-1-ch-89",
  "url": "https://mangapark.net/title/75577-en-solo-leveling/2273541-vol-1-ch-89",
  "comments": [
    {
      "username": "FredTheSkinwalker\u2642\ufe0e",
      "avatar": "output/avatar/FredTheSkinwalker\u2642\ufe0e",
      "comment": "how appropriate\na true reason to acquire power. not for pnes self b"
    },
    {
      "username": "User.471241",
      "avatar": "output/avatar/User.471241.jpg",
      "comment": "No matter how strong you are,\nyou mom are the strongest"
    },
    {
      "username": "Kooler",
      "avatar": "output/avatar/Kooler",
      "comment": "HEART WARMING"
    },
    {
      "username": "HUNTER03",
      "avatar": "output/avatar/HUNTER03",
      "comment": "Man only cry in front of there loveonce"
    },
    {
      "username": "DioEAAB\u2642\ufe0e",
      "avatar": "output/avatar/DioEAAB\u2642\ufe0e",
      "comment": "Is that emotion i see?"
    },
    {
      "username": "zKeinee\u2642\ufe0e",
      "avatar": "output/avatar/zKeinee\u2642\ufe0e",
      "comment": "T_T"
    },
    {
      "username": "DonttrustanyonE\u2642\ufe0e",
      "avatar": "output/avatar/DonttrustanyonE\u2642\ufe0e",
      "comment": "I came here to some action not to cry T.T"
    },
    {
      "username": "raanga",
      "avatar": "output/avatar/raanga",
      "comment": ":')"
    },
    {
      "username": "AyaWKoL",
      "avatar": "output/avatar/AyaWKoL.png",
      "comment": "\ud83d\ude2d"
    },
    {
      "username": "EuniceSuso",
      "avatar": "output/avatar/EuniceSuso",
      "comment": "Well it really is difficult when he fight those things again"
    },
    {
      "username": "Cid_kagenoah",
      "avatar": "output/avatar/Cid_kagenoah",
      "comment": ""
    },
    {
      "username": "TheDebauchery",
      "avatar": "output/avatar/TheDebauchery",
      "comment": "The scar on her neck isn't gone? Curious.\nMaybe this is just a temporary recovery."
    },
    {
      "username": "Paowiii",
      "avatar": "output/avatar/Paowiii",
      "comment": "Scar yourself idiot"
    },
    {
      "username": "MommyMental",
      "avatar": "output/avatar/MommyMental.png",
      "comment": "its used cure any disease not injury"
    },
    {
      "username": "Wibawa Lala",
      "avatar": "",
      "comment": "good question !"
    },
    {
      "username": "CliB3Nz\u2642\ufe0e",
      "avatar": "output/avatar/CliB3Nz\u2642\ufe0e",
      "comment": "a good reason to become strong, not just thinking with his dick like 90% of other mc"
    },
    {
      "username": "Poop_fart_poop_fart \u2642\ufe0e",
      "avatar": "output/avatar/Poop_fart_poop_fart \u2642\ufe0e",
      "comment": "Gets me everytime \ud83e\udd79"
    },
    {
      "username": "JesusWithBlackAirforces",
      "avatar": "output/avatar/JesusWithBlackAirforces",
      "comment": "Bro finally sees the fruit of all his suffering"
    },
    {
      "username": "KarmaAkabaneSimp\u2640\ufe0e",
      "avatar": "output/avatar/KarmaAkabaneSimp\u2640\ufe0e.jpg",
      "comment": "Why the hell did my comment get posted 3 times \ud83d\ude02"
    },
    {
      "username": "KarmaAkabaneSimp\u2640\ufe0e",
      "avatar": "output/avatar/KarmaAkabaneSimp\u2640\ufe0e",
      "comment": "Bro why couldn\u2019t his mom just die? Would\u2019ve made it a heck of a lot more interesting for me anyway"
    },
    {
      "username": "Realizm",
      "avatar": "output/avatar/Realizm",
      "comment": "Who's that in your pic?"
    },
    {
      "username": "Syudouu\u2642\ufe0e",
      "avatar": "",
      "comment": "Bro damn"
    },
    {
      "username": "KarmaAkabaneSimp\u2640\ufe0e",
      "avatar": "output/avatar/KarmaAkabaneSimp\u2640\ufe0e",
      "comment": "Bro why couldn\u2019t his mom just die? Would\u2019ve made it a heck of a lot more interesting for me anyway"
    },
    {
      "username": "Syudouu\u2642\ufe0e",
      "avatar": "",
      "comment": "Bro damn"
    },
    {
      "username": "KarmaAkabaneSimp\u2640\ufe0e",
      "avatar": "output/avatar/KarmaAkabaneSimp\u2640\ufe0e",
      "comment": "Bro why couldn\u2019t his mom just die? Would\u2019ve made it a heck of a lot more interesting for me anyway"
    },
    {
      "username": "TheDebauchery",
      "avatar": "output/avatar/TheDebauchery",
      "comment": "\"Interesting\"? That would have been clich\u00e9d as fuck."
    },
    {
      "username": "Syudouu\u2642\ufe0e",
      "avatar": "",
      "comment": "Bro damn"
    },
    {
      "username": "Bigboichaolin",
      "avatar": "output/avatar/Bigboichaolin",
      "comment": "Fuck you"
    }
  ]
}