{
  "title": "Solo Leveling - Vol.1 Ch.105 - Share Any Manga on MangaPark",
  "slug": "2366566-vol-1-ch-105",
  "url": "https://mangapark.net/title/75577-en-solo-leveling/2366566-vol-1-ch-105",
  "comments": [
    {
      "username": "Direlost11",
      "avatar": "output/avatar/Direlost11.png",
      "comment": ""
    },
    {
      "username": "SJsucks\ud83d\ude0b\u2642\ufe0e",
      "avatar": "output/avatar/SJsucks\ud83d\ude0b\u2642\ufe0e",
      "comment": "Forget about being national level, jin woo is probably continent level."
    },
    {
      "username": "Reina_",
      "avatar": "output/avatar/Reina_",
      "comment": "He\u2019s universe level"
    },
    {
      "username": "mysticallystatic\u2640\ufe0e",
      "avatar": "output/avatar/mysticallystatic\u2640\ufe0e",
      "comment": "Facts"
    },
    {
      "username": "User.464026",
      "avatar": "",
      "comment": "Our Beru is here\ud83d\ude0d\ud83d\ude0d"
    },
    {
      "username": "Ella94",
      "avatar": "output/avatar/Ella94",
      "comment": "he better go grab the corpse of the dead japanese S-rank healer to, would be a super waste to not get that"
    },
    {
      "username": "User.751709",
      "avatar": "output/avatar/User.751709",
      "comment": "once someone is canceled it cannot be uncanceled"
    },
    {
      "username": "Ella94",
      "avatar": "output/avatar/Ella94",
      "comment": "the japanese healer, not the korean one, you know the girl outside who's head got blown off by Beru, in the end he didnt use any of the japanese S rank corpses to make new shadow soldiers"
    },
    {
      "username": "Kotetsu",
      "avatar": "output/avatar/Kotetsu",
      "comment": "Author forgot"
    },
    {
      "username": "User.683796",
      "avatar": "",
      "comment": "They would have to make Rank SSSS just for him, lmao."
    },
    {
      "username": "User.465904",
      "avatar": "",
      "comment": "Moonlight greatsword"
    },
    {
      "username": "DonttrustanyonE\u2642\ufe0e",
      "avatar": "output/avatar/DonttrustanyonE\u2642\ufe0e",
      "comment": "Yoooooo"
    },
    {
      "username": "Lovely1\u2642\ufe0e",
      "avatar": "output/avatar/Lovely1\u2642\ufe0e",
      "comment": "BERU"
    },
    {
      "username": "Wibawa Lala",
      "avatar": "",
      "comment": "Not ordinary summer?!\nHehehe"
    },
    {
      "username": "znivhasrizz",
      "avatar": "output/avatar/znivhasrizz",
      "comment": "Why is blud playing pokemon on his foe \ud83d\ude4f\ud83d\ude02"
    },
    {
      "username": "JesusWithBlackAirforces",
      "avatar": "output/avatar/JesusWithBlackAirforces",
      "comment": "Bro the National Hunter nah this mf is a WorldWide Hunter. He's probably the strongest mf out there"
    },
    {
      "username": "TheDebauchery",
      "avatar": "output/avatar/TheDebauchery",
      "comment": "Of course he got the fucking bug.\nAnd I'm guessing he baleeted the other healer.\nSo... where from here?\nSS-Rank dungeons? Level up!\nSSS-Rank dungeons? Level up!\nT-Rank bungeons? Bevel up!\nEndless asinine fights, people trying to hire him, women gushing over him, and swishy black lines?\nHe needs to be kicked down a notch if this story has any hope of getting entertaining again."
    },
    {
      "username": "ShizukiSenpai\u2642\ufe0e",
      "avatar": "output/avatar/ShizukiSenpai\u2642\ufe0e.jpg",
      "comment": "I don't even get why you're wasting your time just to say all of that in almost every chapters. It's funny how you do your life like that but nonetheless, be you \ud83d\udc80 between being a critic and a laughing stock"
    },
    {
      "username": "TheDebauchery",
      "avatar": "output/avatar/TheDebauchery",
      "comment": "You don't have to understand, stranger. And given you don't understand, you're better off minding your own business and contemplating your shortcomings."
    },
    {
      "username": "ShizukiSenpai\u2642\ufe0e",
      "avatar": "output/avatar/ShizukiSenpai\u2642\ufe0e",
      "comment": "Shortcoming or not, seeing as how you put up your words would have most people take it in an account that some will fight back, if you know what I mean. Though I'm just here since this whole thing just started as you started pointing out the negative side of the manhwa as of which it's already been decades since it was finished (excluding the future side chapters) so I was confused as to why you'd type all pf this and just tell people to mind their own business\u2014also making me think who'd you want to see this messages of yours"
    },
    {
      "username": "TheDebauchery",
      "avatar": "output/avatar/TheDebauchery",
      "comment": "They're not made for anyone in particular. They were my thoughts and it made sense to express them since apparently most others are too oblivious to notice the many failings of this series.\nI mean you know some manga on this site have multiple uploaded versions? As in different copies of the same chapters. Sometimes if version 1 is garbage, I'll go to version 2 or 3... and when I find a good one, I'll go through the manga there, and leave the comments there too. And rarely will anyone ever find those because most people don't switch away from version 1. The writing of them was what mattered to me... not whether or not anyone reads them.\nAnyhow, what are you on about fighting back? They're initiating hostilities in the first place."
    },
    {
      "username": "Paowiii",
      "avatar": "output/avatar/Paowiii",
      "comment": "Cornyyyy"
    }
  ]
}