{
  "title": "Solo Leveling - Vol.2 Ch.116 - Share Any Manga on MangaPark",
  "slug": "2532192-vol-2-ch-116",
  "url": "https://mangapark.net/title/75577-en-solo-leveling/2532192-vol-2-ch-116",
  "comments": [
    {
      "username": "CouchKun",
      "avatar": "output/avatar/CouchKun",
      "comment": "They\u2019re heeeerreeeeeee."
    },
    {
      "username": "DonttrustanyonE\u2642\ufe0e",
      "avatar": "output/avatar/DonttrustanyonE\u2642\ufe0e",
      "comment": "Yoooooo"
    },
    {
      "username": "angrycup",
      "avatar": "output/avatar/angrycup",
      "comment": "well damn i feel bad for that guy"
    },
    {
      "username": "Wibawa Lala",
      "avatar": "",
      "comment": "Is that you Hanekawa?\nMan, Ye Rim is really looked same like her with different nation"
    },
    {
      "username": "JesusWithBlackAirforces",
      "avatar": "output/avatar/JesusWithBlackAirforces",
      "comment": "Damn"
    }
  ]
}