{
  "title": "Solo Leveling - Vol.2 Ch.119 - Share Any Manga on MangaPark",
  "slug": "2553311-vol-2-ch-119",
  "url": "https://mangapark.net/title/75577-en-solo-leveling/2553311-vol-2-ch-119",
  "comments": [
    {
      "username": "Ella94",
      "avatar": "output/avatar/Ella94",
      "comment": "so to take out the high orc general it takes a green orc dungeon boss ?\nguess that shows the difference in theyre power"
    },
    {
      "username": "trololol\u2642\ufe0e",
      "avatar": "",
      "comment": "Shut up and take me money"
    },
    {
      "username": "angrycup",
      "avatar": "output/avatar/angrycup",
      "comment": "bro became hashirama \u201ci\u2019ll deal with you later\u201d"
    },
    {
      "username": "User.779617",
      "avatar": "",
      "comment": ""
    },
    {
      "username": "Kiyotaka_Ayanokouji",
      "avatar": "output/avatar/Kiyotaka_Ayanokouji",
      "comment": "The great orc heh \"How delusional\"\ud83d\ude12"
    },
    {
      "username": "DonttrustanyonE\u2642\ufe0e",
      "avatar": "output/avatar/DonttrustanyonE\u2642\ufe0e",
      "comment": "The annoying kid is here again"
    },
    {
      "username": "JesusWithBlackAirforces",
      "avatar": "output/avatar/JesusWithBlackAirforces",
      "comment": "Damn bro said shut up and wait your turn"
    },
    {
      "username": "U.1152577",
      "avatar": "",
      "comment": "Take it out on me boo \ud83d\ude4f\ud83c\udffd"
    },
    {
      "username": "User.464026",
      "avatar": "",
      "comment": "Oh he's furious. Time to kick his ass\ud83d\ude01\ud83d\ude01"
    },
    {
      "username": "TheDebauchery",
      "avatar": "output/avatar/TheDebauchery",
      "comment": "Those red high orcs posed a serious threat to A-Rank adventurers, the ones shown are high orc generals, and now they're being beaten down by regular, green orcs? Isn't that kinda stupid?\nIt also plays into that whole weird contradiction where before the shadow warriors were clearly stated to retain their power from life, and then later with the bug the exact opposite was declared. So they're both weaker and NOT weaker... because the author can't keep his story straight."
    },
    {
      "username": "Ella94",
      "avatar": "output/avatar/Ella94",
      "comment": "uhm you do know Guroktaru is the dungeon boss right, even if one of the 3 high orcs that MC's sister has is a high orc general they will still be bellow a Orc dungeon boss\nuntill Guroktaru showed up all the orcs that attacked got killed by the high orcs"
    },
    {
      "username": "TheDebauchery",
      "avatar": "output/avatar/TheDebauchery",
      "comment": "I don't even remember the specific situation enough to reply to that. I only vaguely recall that this series had red orcs and green orcs, and the red ones were supposed to be stronger but the green ones beat them anyway.\nAnd honestly, right now I don't care as I finished with this mess of an overrated story a month ago."
    },
    {
      "username": "Ella94",
      "avatar": "output/avatar/Ella94",
      "comment": "basically the red orcs are stronger then the green orcs, but the one who overpowered the red orcs is the green orc dungeon boss, dungeon bosses are always allot stronger then the normal dungeon enemies"
    },
    {
      "username": "TheDebauchery",
      "avatar": "output/avatar/TheDebauchery",
      "comment": "Since when could a dungeon boss leave the dungeon?"
    },
    {
      "username": "Ella94",
      "avatar": "output/avatar/Ella94",
      "comment": "they can the moment enough time has passed and the dungeon breaks, as you can see for the green orc it says ''the final restraints have been lifted'' showing the gate has fully broken and all monsters in the dungeon, including the boss, are free to leave and wreck havock"
    },
    {
      "username": "TheSilverKing",
      "avatar": "output/avatar/TheSilverKing",
      "comment": "Or maybe you\u2019re just a dumbass. They said they have the same abilities but lowered capabilities, a summons\u2019s fireball will do less damage than the actual fireball"
    },
    {
      "username": "TheDebauchery",
      "avatar": "output/avatar/TheDebauchery",
      "comment": "It is obvious I'm not \"a dumbass\" if one just pays attention to what I'm saying for a few seconds.\nYou're not a very good judge, clearly.\nI'll tell you again slowly and simply. Maybe you'll get it this time:\nThe. Story. Contradicted. Itself.\nGo back and read the part where he first unlocked the job skills. Back where he gained the services of Igris. And pay close attention."
    },
    {
      "username": "Wibawa Lala",
      "avatar": "",
      "comment": "Actually what you said was no wrong. But also not right either\nThe manhwa is a little different and weird from the actual story in LN\nThe high orcs are strong. Even the generals high orcs are stronger\nBut yes when they died and summoned by MC they became weaker\nBut do not forget they can get stronger by rising up the levels\nAnd the high orcs have spent few months and battles with the MC so their levels should go up\nThis is just my imagination though, but at the high orcs arc before\nThe narrator said high orcs are one of the strongest in orcs clan. Not the most strongest. So i think there a lot of types of orcs that the story did not tell us\nAbout this boss green orcs, I do not think he was just a regular orcs\nYou can tell the orcs are strong not by his type or colours, but by using his tattoes\nHe has more tattoes than the general high orcs"
    },
    {
      "username": "User.751709",
      "avatar": "",
      "comment": "They got nerfed after becoming shadows you fucking cretin. The only reason why Tusk is as strong as he is is because of the orb! Also, shadows can level up over time so it makes sense that their power levels can change you jackass."
    },
    {
      "username": "Paowiii",
      "avatar": "output/avatar/Paowiii",
      "comment": "./."
    }
  ]
}