{
  "title": "Solo Leveling - Vol.2 Ch.124 - Share Any Manga on MangaPark",
  "slug": "2583252-vol-2-ch-124",
  "url": "https://mangapark.net/title/75577-en-solo-leveling/2583252-vol-2-ch-124",
  "comments": [
    {
      "username": "Gull02\u2642\ufe0e",
      "avatar": "output/avatar/Gull02\u2642\ufe0e",
      "comment": "Here we it goes \ud83d\ude2e"
    },
    {
      "username": "Seapril",
      "avatar": "output/avatar/Seapril",
      "comment": "Good thing he didn't receive the money before he died"
    },
    {
      "username": "Suiton\u2642\ufe0e",
      "avatar": "output/avatar/Suiton\u2642\ufe0e",
      "comment": "Yes answers"
    },
    {
      "username": "JesusWithBlackAirforces",
      "avatar": "output/avatar/JesusWithBlackAirforces",
      "comment": "They sure like to smile"
    },
    {
      "username": "Dragonslicer630\u2642\ufe0e",
      "avatar": "output/avatar/Dragonslicer630\u2642\ufe0e",
      "comment": "Here we go again"
    },
    {
      "username": "U.1152577",
      "avatar": "",
      "comment": "Ouuuuu"
    },
    {
      "username": "TheDebauchery",
      "avatar": "output/avatar/TheDebauchery",
      "comment": "Oh look. It's his boss.\nIs he going to assume the position now?"
    },
    {
      "username": "Paowiii",
      "avatar": "output/avatar/Paowiii",
      "comment": "Im your boss"
    },
    {
      "username": "havlock556\u2642\ufe0e",
      "avatar": "output/avatar/havlock556\u2642\ufe0e.jpg",
      "comment": "You are Question aren't you. Same condescending arrogance can't be a coincidence. Would be a tragedy if it meant there are two of you."
    },
    {
      "username": "Timekiller\u2642\ufe0e",
      "avatar": "",
      "comment": "Question isn't as determined as him. Question usually stop reading and give a very low review, but this guy, he reading it to the end so that people couldn't say \"you should've reading it to the end\". Basically, he really have the time and the effort to read something he can't stand it."
    },
    {
      "username": "TheDebauchery",
      "avatar": "output/avatar/TheDebauchery",
      "comment": "\"Question\"? I have no idea who you're talking about. There is only one of me, but if there were two of me we'd have to fight to the death. I'm sure you'd like that, wouldn't you, stranger?\nBesides, the irony of yet another copypaste random mixing me up with someone else is ridiculous. You think I'm someone else? You and the other 555 \"havlocks\" out there?"
    },
    {
      "username": "havlock556\u2642\ufe0e",
      "avatar": "output/avatar/havlock556\u2642\ufe0e",
      "comment": "If you dunno who Question is, others do. Then that is a tragedy since that means there's two of you. And neither of you would be missed.\nAnd BTW, 556 is as in 5.56mm NATO. Just a personal affectation."
    },
    {
      "username": "TheDebauchery",
      "avatar": "output/avatar/TheDebauchery",
      "comment": "It doesn't matter where you got your number from. The fact that you have to use a number means you couldn't find a distinctive handle.\nAnd I don't know why you'd expect me to know who anyone is. I'm an old git with a memory like a sieve and I don't care about other posters anyway. I'll have forgotten you entirely in under a week, along with everyone else."
    },
    {
      "username": "Gone_Gone",
      "avatar": "output/avatar/Gone_Gone",
      "comment": "to be honest you're the only one people will remember from this comment section"
    },
    {
      "username": "TheDebauchery",
      "avatar": "output/avatar/TheDebauchery",
      "comment": "I don't need to be remembered. I just need what I impart to be understood."
    }
  ]
}