{
  "title": "Solo Leveling - Vol.2 Ch.127 - Share Any Manga on MangaPark",
  "slug": "2598299-vol-2-ch-127",
  "url": "https://mangapark.net/title/75577-en-solo-leveling/2598299-vol-2-ch-127",
  "comments": [
    {
      "username": "Pgxdh42",
      "avatar": "output/avatar/Pgxdh42",
      "comment": "He stoped his attack cuz of the shield guy and gave him some pay back \ud83d\ude02\ud83e\udd23"
    },
    {
      "username": "U.1152577",
      "avatar": "",
      "comment": "Look at my pookie go \ud83d\ude3b\ud83c\udf80\ud83c\udf80\ud83c\udf80\ud83c\udf80\ud83c\udf80"
    },
    {
      "username": "TheDebauchery",
      "avatar": "output/avatar/TheDebauchery",
      "comment": "All those questions about what Jin Woo is ... but apparently he really is just a puny human after all. Straight from the admin's mouth.\nSo it wasn't all that important a question at all.\nSo what now? Admin revokes Jin Woo's levels? Reverts him back to E-Rank? Wouldn't that be funny?\nWon't happen though."
    },
    {
      "username": "Paowiii",
      "avatar": "output/avatar/Paowiii",
      "comment": "Stop taking drugs"
    },
    {
      "username": "angrycup",
      "avatar": "output/avatar/angrycup",
      "comment": "exactly stop taking drugs"
    },
    {
      "username": "The_Joker",
      "avatar": "output/avatar/The_Joker",
      "comment": "He's just an ass"
    },
    {
      "username": "BLOODYALEX",
      "avatar": "output/avatar/BLOODYALEX",
      "comment": "If you don't like it don't read it, because I'm pretty sure no one cares \ud83d\ude12"
    },
    {
      "username": "TheDebauchery",
      "avatar": "output/avatar/TheDebauchery",
      "comment": "I'm not reading it, retard. Timestamps exist for a reason."
    },
    {
      "username": "U.1151075",
      "avatar": "",
      "comment": "I'm somewhat impressed you got here criticizing all throughout. You're the type of retard who does nothing productive but criticizes everything."
    },
    {
      "username": "U.1151075",
      "avatar": "",
      "comment": "Your pfp says it all tbh"
    }
  ]
}