{
  "title": "Solo Leveling - Ch.128 - Share Any Manga on MangaPark",
  "slug": "2607315-ch-128",
  "url": "https://mangapark.net/title/75577-en-solo-leveling/2607315-ch-128",
  "comments": [
    {
      "username": "SJsucks\ud83d\ude0b\u2642\ufe0e",
      "avatar": "output/avatar/SJsucks\ud83d\ude0b\u2642\ufe0e",
      "comment": "I remember jin woo's father saying something like \"they're coming\"' so maybe system chose jin woo to lead them or jinwoo might even do a rumbling of his own(that would be cool). In any case it might be humanity vs jinwoo."
    },
    {
      "username": "Pgxdh42",
      "avatar": "output/avatar/Pgxdh42",
      "comment": "No matter how many times I see him ashborn is a total badass"
    },
    {
      "username": "buddha_chan",
      "avatar": "output/avatar/buddha_chan",
      "comment": "i love ashborn"
    },
    {
      "username": "JesusWithBlackAirforces",
      "avatar": "output/avatar/JesusWithBlackAirforces",
      "comment": "Bro if they die then it's on them. They asked for this"
    }
  ]
}