{
  "title": "Solo Leveling - Vol.2 Ch.137 - Share Any Manga on MangaPark",
  "slug": "2644836-vol-2-ch-137",
  "url": "https://mangapark.net/title/75577-en-solo-leveling/2644836-vol-2-ch-137",
  "comments": [
    {
      "username": "buddha_chan",
      "avatar": "output/avatar/buddha_chan",
      "comment": "giant monarch, i suppose. he has a dope character design"
    },
    {
      "username": "U.1152577",
      "avatar": "",
      "comment": "Ouuu! Back story incoming \ud83c\udf7f\ud83e\udd64\ud83e\ude91"
    },
    {
      "username": "U.1152085",
      "avatar": "",
      "comment": "is jin turning into a bad guy now?"
    }
  ]
}