{
  "title": "Solo Leveling - Chapter 52:k - Share Any Manga on MangaPark",
  "slug": "2810529-chapter-52-k",
  "url": "https://mangapark.net/title/75577-en-solo-leveling/2810529-chapter-52-k",
  "comments": [
    {
      "username": "Bijjuu",
      "avatar": "output/avatar/Bijjuu",
      "comment": ""
    }
  ]
}