{
  "title": "Solo Leveling - Chapter 96 - Share Any Manga on MangaPark",
  "slug": "2810578-chapter-96",
  "url": "https://mangapark.net/title/75577-en-solo-leveling/2810578-chapter-96",
  "comments": [
    {
      "username": "Amirmahdi",
      "avatar": "output/avatar/Amirmahdi",
      "comment": "It was at this moment that he knew he f.cked up"
    },
    {
      "username": "U.1152577",
      "avatar": "",
      "comment": "I GASPED \ud83d\ude27"
    },
    {
      "username": "mangaparkk",
      "avatar": "output/avatar/mangaparkk",
      "comment": "Fuck I am disappointed by mc\ud83d\ude41\ud83d\ude36"
    }
  ]
}