{
  "title": "Solo Leveling - Chapter 103 - Share Any Manga on MangaPark",
  "slug": "2810585-chapter-103",
  "url": "https://mangapark.net/title/75577-en-solo-leveling/2810585-chapter-103",
  "comments": [
    {
      "username": "angrycup",
      "avatar": "output/avatar/angrycup",
      "comment": "ant really thought he could beat sung with numbers\ud83d\udc80"
    },
    {
      "username": "RedHairedAce",
      "avatar": "output/avatar/RedHairedAce",
      "comment": "that final panel man, SHEEESH i wanna frame it"
    },
    {
      "username": "_Issei_Hyoudou",
      "avatar": "output/avatar/_Issei_Hyoudou",
      "comment": "Wrong move\ud83e\udd23\ud83e\udd23"
    },
    {
      "username": "U.1152577",
      "avatar": "",
      "comment": "Jinwoo hit his head so hard he started to scratch it \ud83d\ude39\ud83e\udef5\ud83c\udffd"
    },
    {
      "username": "A_Abee",
      "avatar": "output/avatar/A_Abee",
      "comment": "I LOVE THE WAY SUNG JIN WOO SMIRKS \ud83e\udd2d\ud83e\udd2d"
    }
  ]
}