{
  "title": "Solo Leveling - Chapter 36 - Share Any Manga on MangaPark",
  "slug": "2810512-chapter-36",
  "url": "https://mangapark.net/title/75577-en-solo-leveling/2810512-chapter-36",
  "comments": [
    {
      "username": "Bijjuu",
      "avatar": "output/avatar/Bijjuu",
      "comment": ""
    }
  ]
}