{
  "title": "Solo Leveling - Chapter 150 - Share Any Manga on MangaPark",
  "slug": "4742187-chapter-150",
  "url": "https://mangapark.net/title/75577-en-solo-leveling/4742187-chapter-150",
  "comments": [
    {
      "username": "Glenn_Radars\u2642\ufe0e",
      "avatar": "output/avatar/Glenn_Radars\u2642\ufe0e",
      "comment": "Ow boi \ud83e\udd23\nCome guys\nLet's pray for the soul of that mufu"
    },
    {
      "username": "Yukikoy",
      "avatar": "",
      "comment": "KEUK! WRONG MOVE HAHA!"
    }
  ]
}