{
  "title": "Solo Leveling - Ch.151 - Share Any Manga on MangaPark",
  "slug": "5911974-ch-151",
  "url": "https://mangapark.net/title/75577-en-solo-leveling/5911974-ch-151",
  "comments": [
    {
      "username": "Ninnikai",
      "avatar": "output/avatar/Ninnikai",
      "comment": "I only noticed at my fifth time reading this. It should be \u201cWoo Jincheol\u201d not \u201cSung Jin-woo\u201d"
    },
    {
      "username": "U.1152577",
      "avatar": "",
      "comment": "Ouuuuuuu"
    }
  ]
}