{
  "title": "Solo Leveling - Ch.153 - Share Any Manga on MangaPark",
  "slug": "5911982-ch-153",
  "url": "https://mangapark.net/title/75577-en-solo-leveling/5911982-ch-153",
  "comments": [
    {
      "username": "Beardie_Dragon",
      "avatar": "output/avatar/Beardie_Dragon.png",
      "comment": "YOO BRO WTF IS THAT GATE"
    },
    {
      "username": "Beardie_Dragon",
      "avatar": "output/avatar/Beardie_Dragon",
      "comment": "I KNOW BRO (Yes, i know im talking to myself.... Im lonely)"
    },
    {
      "username": "ConnorMerrick966\u2642\ufe0e",
      "avatar": "output/avatar/ConnorMerrick966\u2642\ufe0e",
      "comment": ""
    },
    {
      "username": "Lucied\u2642\ufe0e",
      "avatar": "output/avatar/Lucied\u2642\ufe0e.png",
      "comment": "That my friend is the gate that will release Godzilla and Kaiju in Korea"
    },
    {
      "username": "Bijjuu",
      "avatar": "output/avatar/Bijjuu",
      "comment": ""
    }
  ]
}