{
  "title": "Solo Leveling - Chapter 160 - Share Any Manga on MangaPark",
  "slug": "5918057-chapter-160",
  "url": "https://mangapark.net/title/75577-en-solo-leveling/5918057-chapter-160",
  "comments": [
    {
      "username": "rishi_aka_clown\u2642\ufe0e",
      "avatar": "output/avatar/rishi_aka_clown\u2642\ufe0e",
      "comment": "Time for either status recovery or daddy dearest to take over"
    },
    {
      "username": "exia91exio",
      "avatar": "",
      "comment": "nope the last shadow monarch help him"
    },
    {
      "username": "User.751709",
      "avatar": "",
      "comment": "He can't use status recovery because he already used it today. he can only use it after completing his daily workout."
    },
    {
      "username": "El_taquache_cuh\u2642\ufe0e",
      "avatar": "output/avatar/El_taquache_cuh\u2642\ufe0e",
      "comment": "Probably his dad is going to come fight them for a while than he\u2019s going to get up and fuck them up or one of the other monarchs are gone come and help or extract this monarchs"
    },
    {
      "username": "Ridzky Faudzan",
      "avatar": "output/avatar/Ridzky Faudzan.jpg",
      "comment": "Nah.. osborn explaining"
    },
    {
      "username": "Ridzky Faudzan",
      "avatar": "output/avatar/Ridzky Faudzan",
      "comment": "Nah.. osborn explaining"
    },
    {
      "username": "User.724080",
      "avatar": "output/avatar/User.724080.jpg",
      "comment": "He died and he woke up in the hospital a time when he survive in statue boss dungeon from the beginning. He will be reborn as a new shadow monarch. Your welcome"
    },
    {
      "username": "rishi_aka_clown\u2642\ufe0e",
      "avatar": "output/avatar/rishi_aka_clown\u2642\ufe0e",
      "comment": "Ive not even read what you wrote but if that is a spoiler, please put the tag\nAnd if you won\u2019t, know you\u2019re a piece of shit for spoiling others"
    },
    {
      "username": "electro_op_man\u2642\ufe0e",
      "avatar": "output/avatar/electro_op_man\u2642\ufe0e.jpg",
      "comment": "don't worry i read the novel and all these replies are wrong"
    },
    {
      "username": "Ruuuzh",
      "avatar": "output/avatar/Ruuuzh",
      "comment": "Same, man. That reply is super witless."
    },
    {
      "username": "User.724080",
      "avatar": "",
      "comment": "Oh really? Are you blind my dear? Or should i say you don't know how to read"
    },
    {
      "username": "User.724080",
      "avatar": "",
      "comment": "Oh really? Are you blind my dear? Or should i say you don't know how to read"
    },
    {
      "username": "User.724080",
      "avatar": "",
      "comment": "Oh really? Are you blind my dear? Or should i say you don't know how to read"
    },
    {
      "username": "User.724080",
      "avatar": "",
      "comment": "Oh really? Are you blind my dear? Or should i say you don't know how to read"
    },
    {
      "username": "User.724080",
      "avatar": "",
      "comment": "Oh really? Are you blind my dear? Or should i say you don't know how to read"
    },
    {
      "username": "User.724080",
      "avatar": "",
      "comment": "Oh really? Are you blind my dear? Or should i say you don't know how to read"
    },
    {
      "username": "User.724080",
      "avatar": "",
      "comment": "Oh really? Are you blind my dear? Or should i say you don't know how to read"
    },
    {
      "username": "User.724080",
      "avatar": "",
      "comment": "Oh really? Are you blind my dear? Or should i say you don't know how to read"
    },
    {
      "username": "electro_op_man\u2642\ufe0e",
      "avatar": "output/avatar/electro_op_man\u2642\ufe0e",
      "comment": "well this replay was meant to trigger the 10 year old kids who just wanna spoil for the others and looks like it worked very nice look how triggered are these kids and annoyed lol i love these dumb fking kids"
    },
    {
      "username": "User.724080",
      "avatar": "",
      "comment": "He died and he woke up in the hospital a time when he survive in statue boss dungeon from the beginning. He will be reborn as a new shadow monarch. Your welcome"
    },
    {
      "username": "SolidAssLover",
      "avatar": "output/avatar/SolidAssLover.jpg",
      "comment": "But there's another heart\ud83d\ude02"
    },
    {
      "username": "Datann",
      "avatar": "",
      "comment": "Hey, dont spoil and this is unreal, he will redo everything"
    },
    {
      "username": "ColiLord",
      "avatar": "output/avatar/ColiLord.jpg",
      "comment": "yes MC Dead....\nComic will go hiatus for 3 months or until MC recover ?"
    },
    {
      "username": "ben10a\u2642\ufe0e",
      "avatar": "output/avatar/ben10a\u2642\ufe0e.jpg",
      "comment": "When has an mc died? Would make no sense to do that"
    },
    {
      "username": "ben10a\u2642\ufe0e",
      "avatar": "output/avatar/ben10a\u2642\ufe0e",
      "comment": "Big guy gonna show up soon"
    },
    {
      "username": "ColiLord",
      "avatar": "output/avatar/ColiLord",
      "comment": "He is gonna do ultimate move, which is merging all the shadow to make one lord of shadow and then absorb the shadow to himself.\nPerfect shadow monarch with dragon dual dagger and strongest shadow armor(from lord of shadow) with giga passive stats."
    },
    {
      "username": "ben10a\u2642\ufe0e",
      "avatar": "output/avatar/ben10a\u2642\ufe0e",
      "comment": "I've read the light novel so I know how it ends.\nSo yeah keep up the imagination though \ud83d\udc4d"
    },
    {
      "username": "abanisjohnpatrick",
      "avatar": "output/avatar/abanisjohnpatrick.jpg",
      "comment": "This is my fav. Part"
    },
    {
      "username": "DavidS60434",
      "avatar": "output/avatar/DavidS60434.jpg",
      "comment": "Tell me what happens, i dont mind spoilers, but if you do tell me use the spoiler tag"
    },
    {
      "username": "abanisjohnpatrick",
      "avatar": "output/avatar/abanisjohnpatrick",
      "comment": "He dies!"
    },
    {
      "username": "abanisjohnpatrick",
      "avatar": "output/avatar/abanisjohnpatrick",
      "comment": "Im sorry i didn't know how to use spoiler tag i thought u only need to do it once"
    },
    {
      "username": "DavidS60434",
      "avatar": "",
      "comment": "To use spoiler tags on the bottom(?) There should be an eye crossed off press on that and type in-between the two spoilers"
    },
    {
      "username": "Skeptical_Sheep",
      "avatar": "output/avatar/Skeptical_Sheep.jpg",
      "comment": "Can you tell me what chapter this is in the LN?"
    },
    {
      "username": "User.579022",
      "avatar": "output/avatar/User.579022.jpg",
      "comment": "Ain\u2019t no way ain\u2019t no way"
    },
    {
      "username": "Itsyeaboi\u2642\ufe0e",
      "avatar": "output/avatar/Itsyeaboi\u2642\ufe0e",
      "comment": "if theres one thing you can trust is that solo leveling is to big to end this soon we will at least have awhile longer"
    },
    {
      "username": "EasilyBored\u2642\ufe0e",
      "avatar": "",
      "comment": "Tehe~~"
    },
    {
      "username": "fahmifirmansyahbrantanaka",
      "avatar": "",
      "comment": "Mc have 2 heart, and the shadow monarch heart on the other side of mc chest..."
    },
    {
      "username": "FredTheSkinwalker\u2642\ufe0e",
      "avatar": "output/avatar/FredTheSkinwalker\u2642\ufe0e",
      "comment": "True awakening. His complete form is coming and the True Monarch will be Jin woo. He was chosen to bear the powers of the Monarch and now he will become the Monarch in every sense but not become senseless."
    },
    {
      "username": "Clinomania\u2642\ufe0e",
      "avatar": "output/avatar/Clinomania\u2642\ufe0e",
      "comment": "Hm shadow monarch class interesting"
    },
    {
      "username": "Animestoner420",
      "avatar": "output/avatar/Animestoner420",
      "comment": "Finally time for unknown skill??"
    },
    {
      "username": "U.1158199",
      "avatar": "",
      "comment": "Jinwoo's father here to save the day"
    },
    {
      "username": "Lunaria95\u2640\ufe0e",
      "avatar": "output/avatar/Lunaria95\u2640\ufe0e",
      "comment": "You dumb monarchs just gave away your chance to live, hhhh"
    },
    {
      "username": "Ghufaq",
      "avatar": "",
      "comment": "Here goes nothing"
    },
    {
      "username": "Whitedevil\u2642\ufe0e",
      "avatar": "output/avatar/Whitedevil\u2642\ufe0e",
      "comment": "daddy coming for rescue"
    },
    {
      "username": "Itsyeaboi\u2642\ufe0e",
      "avatar": "output/avatar/Itsyeaboi\u2642\ufe0e",
      "comment": "i shall see you all when pops shows up either that or he will pull something out with that hidden skill like \"un dying will\" or something"
    },
    {
      "username": "Levi11\u2642\ufe0e",
      "avatar": "",
      "comment": "Dam"
    },
    {
      "username": "Levi11\u2642\ufe0e",
      "avatar": "",
      "comment": "Dam"
    },
    {
      "username": "King01\u2642\ufe0e",
      "avatar": "output/avatar/King01\u2642\ufe0e",
      "comment": "Eeekkk the show is about to begin hehehe"
    },
    {
      "username": "lordroadie",
      "avatar": "output/avatar/lordroadie.jpg",
      "comment": "Damn!"
    },
    {
      "username": "bobshahalam18",
      "avatar": "",
      "comment": "Daddy.. tolong cheq.. hahaha"
    },
    {
      "username": "Wkwkyolo",
      "avatar": "",
      "comment": "Daddy ada orang buli saya"
    }
  ]
}