{
  "title": "Solo Leveling - Ch.161 - Share Any Manga on MangaPark",
  "slug": "6014116-ch-161",
  "url": "https://mangapark.net/title/75577-en-solo-leveling/6014116-ch-161",
  "comments": [
    {
      "username": "cloud9",
      "avatar": "output/avatar/cloud9",
      "comment": ""
    },
    {
      "username": "PanzZJ",
      "avatar": "output/avatar/PanzZJ",
      "comment": ""
    }
  ]
}