{
  "title": "Solo Leveling - Chapter 162 - Share Any Manga on MangaPark",
  "slug": "6264402-chapter-162",
  "url": "https://mangapark.net/title/75577-en-solo-leveling/6264402-chapter-162",
  "comments": [
    {
      "username": "LunaAmore",
      "avatar": "output/avatar/LunaAmore.jpg",
      "comment": "...jesus \ud83d\udc41\ud83d\udc44\ud83d\udc41"
    }
  ]
}