{
  "title": "Solo Leveling - Vol.2 Ch.169 - Share Any Manga on MangaPark",
  "slug": "6451558-vol-2-ch-169",
  "url": "https://mangapark.net/title/75577-en-solo-leveling/6451558-vol-2-ch-169",
  "comments": [
    {
      "username": "Smiling_Frog_God",
      "avatar": "output/avatar/Smiling_Frog_God.png",
      "comment": "RIP"
    }
  ]
}