{
  "title": "Solo Leveling - Ch.172 - Share Any Manga on MangaPark",
  "slug": "6504097-ch-172",
  "url": "https://mangapark.net/title/75577-en-solo-leveling/6504097-ch-172",
  "comments": [
    {
      "username": "yue5000\u2642\ufe0e",
      "avatar": "output/avatar/yue5000\u2642\ufe0e.jpg",
      "comment": "KICK HIS @$$ BERU!!!!"
    },
    {
      "username": "_Issei_Hyoudou",
      "avatar": "output/avatar/_Issei_Hyoudou",
      "comment": "Don't bad mouth his liege inform of beru unless you have a death wish"
    }
  ]
}