{
  "title": "Solo Leveling - Chapter 179.6 - Share Any Manga on MangaPark",
  "slug": "7725116-chapter-179-6",
  "url": "https://mangapark.net/title/75577-en-solo-leveling/7725116-chapter-179-6",
  "comments": [
    {
      "username": "toiletbrushchan",
      "avatar": "output/avatar/toiletbrushchan.jpg",
      "comment": "This is like when your ex comes back after you almost forgot about them."
    },
    {
      "username": "abqorideandra",
      "avatar": "",
      "comment": "But u will waiting, right?"
    },
    {
      "username": "Aidilapis",
      "avatar": "output/avatar/Aidilapis.jpg",
      "comment": "Hell yeahhh"
    },
    {
      "username": "DishonestWitness",
      "avatar": "output/avatar/DishonestWitness",
      "comment": ""
    },
    {
      "username": "Epica Rex\u2642\ufe0e",
      "avatar": "output/avatar/Epica Rex\u2642\ufe0e",
      "comment": "Holy shit\nNah if this is a prank imma cry myself to sleep"
    },
    {
      "username": "KAMINE",
      "avatar": "output/avatar/KAMINE",
      "comment": "Cant wait \ud83d\ude01!!! Viva Solo Leveling!!! \ud83c\udf86\ud83c\udf87\ud83c\udf86"
    },
    {
      "username": "Myucel\u2642\ufe0e",
      "avatar": "output/avatar/Myucel\u2642\ufe0e",
      "comment": "finally, after nearly 8 months of waiting!!"
    },
    {
      "username": "USAMSlengka",
      "avatar": "output/avatar/USAMSlengka.jpg",
      "comment": "@_@"
    },
    {
      "username": "_ZERO_0\u2642\ufe0e",
      "avatar": "output/avatar/_ZERO_0\u2642\ufe0e",
      "comment": "Fucking yessssssssssssssssd"
    },
    {
      "username": "Just_Fuu\u2642\ufe0e",
      "avatar": "output/avatar/Just_Fuu\u2642\ufe0e",
      "comment": "owo romance let's gooooo"
    },
    {
      "username": "Neuromancer\u2122",
      "avatar": "output/avatar/Neuromancer\u2122",
      "comment": "Uwoooooooohhhhhhhh!!!!!!!!!!!!!!!!"
    }
  ]
}