{
  "title": "Solo Leveling - Side Story 3 - Share Any Manga on MangaPark",
  "slug": "7757453-side-story-3",
  "url": "https://mangapark.net/title/75577-en-solo-leveling/7757453-side-story-3",
  "comments": [
    {
      "username": "Croco-sensei",
      "avatar": "output/avatar/Croco-sensei",
      "comment": "I wish it's next week already"
    },
    {
      "username": "U.1115925",
      "avatar": "",
      "comment": "Same bro"
    },
    {
      "username": "Just_Fuu\u2642\ufe0e",
      "avatar": "output/avatar/Just_Fuu\u2642\ufe0e",
      "comment": "ayo what!? he remembered"
    },
    {
      "username": "Animestoner420",
      "avatar": "output/avatar/Animestoner420",
      "comment": "He touched him"
    },
    {
      "username": "JOLLY_\u2642\ufe0e",
      "avatar": "output/avatar/JOLLY_\u2642\ufe0e",
      "comment": ""
    },
    {
      "username": "Ovapawa",
      "avatar": "output/avatar/Ovapawa.jpg",
      "comment": "I feel it too"
    },
    {
      "username": "ATKN_DJ\u2642\ufe0e",
      "avatar": "output/avatar/ATKN_DJ\u2642\ufe0e.png",
      "comment": "broooooo still having the same effect on me"
    },
    {
      "username": "User.753197",
      "avatar": "output/avatar/User.753197.jpg",
      "comment": "Bruh i read too fast haha"
    },
    {
      "username": "U.1115925",
      "avatar": "",
      "comment": "Me too\ud83d\ude2d\ud83d\ude02"
    },
    {
      "username": "User.753197",
      "avatar": "",
      "comment": "Haha, \ud83d\ude02"
    },
    {
      "username": "lonelymoon",
      "avatar": "output/avatar/lonelymoon.jpg",
      "comment": "Me too \ud83d\ude2d\ud83d\ude2d\ud83d\ude2d\ud83d\ude2d"
    },
    {
      "username": "kimokaleiokalani",
      "avatar": "output/avatar/kimokaleiokalani.jpg",
      "comment": "Ohhhhh shiiiiiiiit. He got his memories back."
    },
    {
      "username": "Solenya",
      "avatar": "output/avatar/Solenya",
      "comment": "its gonna be an emotional next chapter if its the case"
    },
    {
      "username": "Izumi39\u2642\ufe0e",
      "avatar": "output/avatar/Izumi39\u2642\ufe0e.jpg",
      "comment": "3 chapters.. done in an instant.."
    },
    {
      "username": "BigBird",
      "avatar": "output/avatar/BigBird.jpg",
      "comment": "welp..... rest in peace for young-gil i guess"
    },
    {
      "username": "Suiton\u2642\ufe0e",
      "avatar": "output/avatar/Suiton\u2642\ufe0e",
      "comment": "He called him Hunter Sung Jin-Woo. Does he have residual memories from before? Oh the questions to be asked"
    },
    {
      "username": "User.587503",
      "avatar": "output/avatar/User.587503.jpg",
      "comment": "In the novel he gets it back because they made contact when handing over the drawing"
    },
    {
      "username": "Caleism_Chan",
      "avatar": "output/avatar/Caleism_Chan",
      "comment": "Aaaaaaaahhh! Is that so?? I'm glad that he remembers!!! Will others remember him too?? Please spoil meeee~ \ud83d\ude2d"
    },
    {
      "username": "User.462683",
      "avatar": "output/avatar/User.462683.png",
      "comment": "SPOILERS BELOW\nWARNING\nSPOILERS BELOW\nYes, his girlfriend also gets to remember and she's fucking great. She basically tricks him into giving her back the memories."
    },
    {
      "username": "Caleism_Chan",
      "avatar": "output/avatar/Caleism_Chan",
      "comment": "Thank youuuu!! I'm glad to know she'll remember him too~"
    },
    {
      "username": "adi000987",
      "avatar": "",
      "comment": "yup, and after the talk he is gonna get back all his memory"
    },
    {
      "username": "Wingedlion7",
      "avatar": "output/avatar/Wingedlion7.jpg",
      "comment": "Woohoo we're back guys,stay in the line"
    },
    {
      "username": "User.722406",
      "avatar": "",
      "comment": "Damnnnnnnnnnnnn"
    },
    {
      "username": "Nano_got_ThiccBuns\u2642\ufe0e",
      "avatar": "output/avatar/Nano_got_ThiccBuns\u2642\ufe0e",
      "comment": ""
    },
    {
      "username": "Abu Alif",
      "avatar": "",
      "comment": "power of a single touch"
    },
    {
      "username": "Traumateam",
      "avatar": "output/avatar/Traumateam",
      "comment": "I need more..... this is a f****** addiction [\u0332\u0305\u2060$\u0332\u0305\u2060(\u0332\u0305\u2060 \u0361\u2060\u0ca0\u2060_\u2060\u0ca0\u2060)\u0332\u0305\u2060$\u0332\u0305\u2060]"
    },
    {
      "username": "DishonestWitness",
      "avatar": "output/avatar/DishonestWitness",
      "comment": "He remembers"
    },
    {
      "username": "U.1107075",
      "avatar": "",
      "comment": "I need more!"
    },
    {
      "username": "LordVader",
      "avatar": "output/avatar/LordVader",
      "comment": "damnnn how did his memories back.. but I love it!!!"
    },
    {
      "username": "Jedislayer05",
      "avatar": "output/avatar/Jedislayer05",
      "comment": "Where is this gonna go and how are they gonna take this new plot"
    },
    {
      "username": "NAH331_0",
      "avatar": "output/avatar/NAH331_0.jpg",
      "comment": "I wish they keep going with it and continue"
    },
    {
      "username": "Solenya",
      "avatar": "output/avatar/Solenya",
      "comment": "SHIVERS. O.O are memories coming back?? are the worlds uniting?? be ready for ninjas cutting onions next week."
    },
    {
      "username": "Jozef98kata",
      "avatar": "output/avatar/Jozef98kata",
      "comment": "Aside from this touching last page. This fucking club captain tried to trick our boy jinwoo last chapter to clean laundry for a month. Just reminder"
    },
    {
      "username": "Tempest",
      "avatar": "output/avatar/Tempest",
      "comment": "Now let me see my girl next chapter"
    }
  ]
}