{
  "title": "Solo Leveling - Side Story 6 - Share Any Manga on MangaPark",
  "slug": "7816463-side-story-6",
  "url": "https://mangapark.net/title/75577-en-solo-leveling/7816463-side-story-6",
  "comments": [
    {
      "username": "Tsukyomi",
      "avatar": "",
      "comment": "They miss iron \ud83d\ude02"
    },
    {
      "username": "Someguydoingstuff",
      "avatar": "output/avatar/Someguydoingstuff",
      "comment": "Lwts goo !!! just kiss already damn it!!"
    },
    {
      "username": "Ruuuzh",
      "avatar": "output/avatar/Ruuuzh",
      "comment": "No, it ends here"
    },
    {
      "username": "_Sin_1\u2642\ufe0e",
      "avatar": "output/avatar/_Sin_1\u2642\ufe0e",
      "comment": "You lyin, ain't no way it ends rn"
    },
    {
      "username": "Ruuuzh",
      "avatar": "output/avatar/Ruuuzh",
      "comment": "Nahhh, i was just kiddin', there's also a story with his father"
    },
    {
      "username": "_Sin_1\u2642\ufe0e",
      "avatar": "output/avatar/_Sin_1\u2642\ufe0e",
      "comment": "oh thank God"
    },
    {
      "username": "User.931059",
      "avatar": "",
      "comment": "And their son....XD"
    },
    {
      "username": "_ZERO_0\u2642\ufe0e",
      "avatar": "output/avatar/_ZERO_0\u2642\ufe0e",
      "comment": "Bruhhhh"
    },
    {
      "username": "Someguydoingstuff",
      "avatar": "output/avatar/Someguydoingstuff",
      "comment": "bruhh"
    },
    {
      "username": "User.775325",
      "avatar": "",
      "comment": "The Iron moment was adorable, ngl"
    },
    {
      "username": "Mr. Crowley\u2642\ufe0e",
      "avatar": "output/avatar/Mr. Crowley\u2642\ufe0e.png",
      "comment": "Let's gooo it's Cha Hae-In!"
    },
    {
      "username": "nestykara",
      "avatar": "output/avatar/nestykara.jpg",
      "comment": "PLEASE GET MARRIED THIS TIMELINE"
    },
    {
      "username": "User.587503",
      "avatar": "output/avatar/User.587503",
      "comment": "They do and have a son"
    },
    {
      "username": "Lord Gols",
      "avatar": "",
      "comment": "Plot twist. He married Iron instead"
    },
    {
      "username": "KAMINE",
      "avatar": "output/avatar/KAMINE",
      "comment": "OMG OMG OMG OMG OMG OMG OMG OMG THEY FINALLY SAW EACH OTHERRRRRRR!!!!!!!!!!!! \ud83d\ude0d\ud83d\ude0d\ud83d\ude0d\ud83d\ude0d\ud83d\ude0d\ud83d\ude0d\ud83d\ude0d\ud83d\ude0d\ud83d\ude0d\ud83d\ude0d\ud83d\ude0d\ud83d\ude0d\ud83d\ude0d\ud83d\ude0d\ud83d\ude0d\ud83d\ude0d\ud83d\ude0d\ud83d\ude0d\ud83d\ude0d\ud83d\ude0d\ud83d\ude0d\ud83d\ude0d\ud83d\ude0d\ud83d\ude0d\ud83d\ude0dKiliucj"
    },
    {
      "username": "TachibanaAl\u2642\ufe0e",
      "avatar": "output/avatar/TachibanaAl\u2642\ufe0e",
      "comment": "Ah yes the background girl"
    },
    {
      "username": "User.1023958",
      "avatar": "",
      "comment": "Is \"Background girl #1\""
    },
    {
      "username": "User.1002940",
      "avatar": "output/avatar/User.1002940.jpg",
      "comment": "Tf are these bots"
    },
    {
      "username": "faruruhidayato",
      "avatar": "",
      "comment": "They are being weird"
    },
    {
      "username": "U.1118775",
      "avatar": "",
      "comment": "Maybe someone with **** trying to hype up the new chapters with views and comments. I'd really love to see this be picked back up again with even more support"
    },
    {
      "username": "Meooow123\u2642\ufe0e",
      "avatar": "output/avatar/Meooow123\u2642\ufe0e.jpg",
      "comment": "These are one hell of a trio\ud83d\ude02\ud83d\ude02"
    },
    {
      "username": "iamprettyboy\u2640\ufe0e",
      "avatar": "output/avatar/iamprettyboy\u2640\ufe0e.jpg",
      "comment": "FINALLY THE LOVE BIRDS"
    },
    {
      "username": "foreverlasting",
      "avatar": "",
      "comment": "Igris is the coolest, Beru is the cutest and Iron is still the funniest \ud83d\ude02 And I love how they all welcome Iron back \ud83d\ude02\ud83d\ude02\ud83d\ude02"
    },
    {
      "username": "DarkflameTomoki",
      "avatar": "output/avatar/DarkflameTomoki.jpg",
      "comment": "OMG OMG OMG OMG OMG OMG OMG OMG THEY FINALLY SAW EACH OTHERRRRRRR!!!!!!!!!!!! \ud83d\ude0d\ud83d\ude0d\ud83d\ude0d\ud83d\ude0d\ud83d\ude0d\ud83d\ude0d\ud83d\ude0d\ud83d\ude0d\ud83d\ude0d\ud83d\ude0d\ud83d\ude0d\ud83d\ude0d\ud83d\ude0d\ud83d\ude0d\ud83d\ude0d\ud83d\ude0d\ud83d\ude0d\ud83d\ude0d\ud83d\ude0d\ud83d\ude0d\ud83d\ude0d\ud83d\ude0d\ud83d\ude0d\ud83d\ude0d\ud83d\ude0dKiliucj"
    },
    {
      "username": "Ascension\u2642\ufe0e",
      "avatar": "output/avatar/Ascension\u2642\ufe0e",
      "comment": "So, Iron returned to being a human when he reverse time. And, you saved the world many times. You deserve her"
    },
    {
      "username": "Aidilapis",
      "avatar": "output/avatar/Aidilapis",
      "comment": "OMG OMG OMG OMG OMG OMG OMG OMG THEY FINALLY SAW EACH OTHERRRRRRR!!!!!!!!!!!! \ud83d\ude0d\ud83d\ude0d\ud83d\ude0d\ud83d\ude0d\ud83d\ude0d\ud83d\ude0d\ud83d\ude0d\ud83d\ude0d\ud83d\ude0d\ud83d\ude0d\ud83d\ude0d\ud83d\ude0d\ud83d\ude0d\ud83d\ude0d\ud83d\ude0d\ud83d\ude0d\ud83d\ude0d\ud83d\ude0d\ud83d\ude0d\ud83d\ude0d\ud83d\ude0d\ud83d\ude0d\ud83d\ude0d\ud83d\ude0d\ud83d\ude0dKiliucj"
    },
    {
      "username": "Kabjagy",
      "avatar": "output/avatar/Kabjagy",
      "comment": ""
    },
    {
      "username": "Lunara_fenrir",
      "avatar": "",
      "comment": "Maybe there's a chance iron reunited with his fellow shadow commander in the future? Must be fun"
    },
    {
      "username": "Mata_Mata",
      "avatar": "",
      "comment": "Read the whole novel and seeing it in the drawing really give it another experience. Applause for the artist. Such a beautiful image of Jin Woo and Hae in."
    },
    {
      "username": "faruruhidayato",
      "avatar": "",
      "comment": "She sprained her legs?\nWill he heal her?"
    },
    {
      "username": "Odangga\u2642\ufe0e",
      "avatar": "",
      "comment": "Tf are these bots"
    },
    {
      "username": "Senpai_Jiho\u2642\ufe0e",
      "avatar": "output/avatar/Senpai_Jiho\u2642\ufe0e",
      "comment": "Romance ?? I need romance"
    }
  ]
}