{
  "title": "Solo Leveling - Side Story 15 - Share Any Manga on MangaPark",
  "slug": "7930426-side-story-15",
  "url": "https://mangapark.net/title/75577-en-solo-leveling/7930426-side-story-15",
  "comments": [
    {
      "username": "sanjusan",
      "avatar": "output/avatar/sanjusan.png",
      "comment": "dawwwwwwwwwwwwwww daddy gave him a playground!~ XD this would absolutely rock! destresser on the weekends!"
    },
    {
      "username": "bluemaik",
      "avatar": "output/avatar/bluemaik.png",
      "comment": "Yeah, seriously best way to milk a great story compared to some of the other crap I read that doesn't end and just does the same crap over and over again."
    },
    {
      "username": "bluemaik",
      "avatar": "output/avatar/bluemaik",
      "comment": "Also curious where MC went, it's not like he can die (of natural causes). Is MC the final boss?!"
    },
    {
      "username": "bluemaik",
      "avatar": "output/avatar/bluemaik",
      "comment": "Hope not, kinda shitty of him to leave his family."
    },
    {
      "username": "Maanas",
      "avatar": "output/avatar/Maanas.jpg",
      "comment": "What? No he didn't leave??? He can make his own gates, he's just gonna go to the final boss room when he needs to?"
    },
    {
      "username": "Uri777\u2640\ufe0e",
      "avatar": "output/avatar/Uri777\u2640\ufe0e",
      "comment": "From what i gathered, he along with the rulers currently fighting in the front line. Because apparently, even with the monarch gone there's always some bastards who try to envading te earth. Sauce: sequel novel"
    },
    {
      "username": "Baam025",
      "avatar": "output/avatar/Baam025",
      "comment": "If one weapon isn't enough, bring everything you can"
    },
    {
      "username": "Jedislayer05",
      "avatar": "output/avatar/Jedislayer05",
      "comment": "Oh my\nIt all come back around after all"
    },
    {
      "username": "User.842956",
      "avatar": "",
      "comment": "deja vu"
    },
    {
      "username": "Kicks it",
      "avatar": "output/avatar/Kicks it",
      "comment": "THIS IS WHAT I WANTED AND NEVER EVEN KNEW IT!!!!"
    },
    {
      "username": "_Sin_1\u2642\ufe0e",
      "avatar": "output/avatar/_Sin_1\u2642\ufe0e",
      "comment": "I wonder if he's stronger than jin woo when he was at this point. I'd honestly say he is since hes his child and all but I feel like jin woo would still win because of experience."
    },
    {
      "username": "Mokadelic",
      "avatar": "output/avatar/Mokadelic",
      "comment": "Yeah, I think he is much stronger that Jin Wo when he was at his age. Igris is exponentially stronger and I think Sung told him not to hold back at all. That he is even able to see his attack is incredible"
    },
    {
      "username": "_Sin_1\u2642\ufe0e",
      "avatar": "output/avatar/_Sin_1\u2642\ufe0e",
      "comment": "Yea I agree. But Jin woo at this time been through multiple dungeons, pain & suffering &had the mentality to kill people so with that I think he'd win but it'll be difficult."
    },
    {
      "username": "Mokadelic",
      "avatar": "output/avatar/Mokadelic",
      "comment": "You have to take into account that both his parents are exceptional fighters, this kid has probably won the genetic lottery xD he looks a pretty skilled fighter even without taking in consideration his supernatural powers. Sung couldn't even throw a punch at this age, this kid goes around bullying bullies with kickboxing moves !"
    },
    {
      "username": "grecefar",
      "avatar": "output/avatar/grecefar.png",
      "comment": "I wonder what igris is thinking."
    },
    {
      "username": "_Kayden_",
      "avatar": "output/avatar/_Kayden_",
      "comment": "\"Young monarch is coming, how should i treat him, how should i sit, where should i come from"
    },
    {
      "username": "Veldora_Tempest",
      "avatar": "output/avatar/Veldora_Tempest",
      "comment": "Should I go easy on him? Or should I fight like how I fought my liege?"
    },
    {
      "username": "FLAMBEAU\u2642\ufe0e",
      "avatar": "output/avatar/FLAMBEAU\u2642\ufe0e",
      "comment": ""
    },
    {
      "username": "1SleePySheeP",
      "avatar": "output/avatar/1SleePySheeP.png",
      "comment": "I thought it was Beru who wait him in the room."
    },
    {
      "username": "turtle_dude\u2642\ufe0e",
      "avatar": "output/avatar/turtle_dude\u2642\ufe0e.jpg",
      "comment": "Please don't make him a necromancer \ud83d\ude2d\ud83d\ude2d\ud83d\ude2d\ud83d\ude2d"
    },
    {
      "username": "Desolator Mana\u2642\ufe0e",
      "avatar": "output/avatar/Desolator Mana\u2642\ufe0e",
      "comment": "well you know that there are 3 Main Job and one of them is Necromancer so i guess the other 2 will be unlock by sung son... whatever it is"
    },
    {
      "username": "_Kayden_",
      "avatar": "output/avatar/_Kayden_",
      "comment": "Well he doesn't want a dagger so not an assassin he chose to be a martial artist or fighter"
    },
    {
      "username": "JesterJ\u2642\ufe0e",
      "avatar": "output/avatar/JesterJ\u2642\ufe0e",
      "comment": "He's more of a battle maniac than his father!"
    },
    {
      "username": "Mokadelic",
      "avatar": "output/avatar/Mokadelic",
      "comment": "He is definitely his father's son"
    },
    {
      "username": "Tsukiii8",
      "avatar": "output/avatar/Tsukiii8",
      "comment": "Just reading the novel i can tell he's more wicked than his father \ud83e\udd23 he's adventurous and want to try everything despite beru:s warnings and I'm loving it lol"
    },
    {
      "username": "Just_A_Passing_Shinigami\u2642\ufe0e",
      "avatar": "output/avatar/Just_A_Passing_Shinigami\u2642\ufe0e",
      "comment": "well he lived in a peaceful world with a little bit of strict parents and he is a teenager"
    },
    {
      "username": "Tsukiii8",
      "avatar": "output/avatar/Tsukiii8",
      "comment": "Yeah and being with the shadow soldiers since birth will definitely make him fearless, plus having the most powerful father? \ud83d\ude0f"
    },
    {
      "username": "TachibanaAl\u2642\ufe0e",
      "avatar": "output/avatar/TachibanaAl\u2642\ufe0e",
      "comment": "You should have uses the dangger, you cheeky brat \ud83d\ude20\nI bet igris heard this cheeky brat bad mouthing the great dagger, and then decided to go hard on him.\nGood jobs igris!! teach em' some manner! \ud83d\udc4c"
    },
    {
      "username": "_ZERO_0\u2642\ufe0e",
      "avatar": "output/avatar/_ZERO_0\u2642\ufe0e",
      "comment": "Nah bro that's not the reason you are angry cause you are used to seeing mc and you can't just accept the fact that we will see his son's adventure now"
    },
    {
      "username": "TachibanaAl\u2642\ufe0e",
      "avatar": "output/avatar/TachibanaAl\u2642\ufe0e",
      "comment": "Definitely a bruh moment right there \ud83d\uddff\nYou must be really fun at the party, well if you ever been invited to one in the first place.\nwhat are you? 9? lmao"
    },
    {
      "username": "Jozef98kata",
      "avatar": "output/avatar/Jozef98kata",
      "comment": "Like father like son in beating knights"
    },
    {
      "username": "Jozef98kata",
      "avatar": "output/avatar/Jozef98kata",
      "comment": "In the last panel. Did he turn to a psycho sadist against armored knights ?"
    },
    {
      "username": "Mangalover48\u2642\ufe0e",
      "avatar": "output/avatar/Mangalover48\u2642\ufe0e.png",
      "comment": "All the best, Young Monarch!"
    },
    {
      "username": "HTKage91",
      "avatar": "",
      "comment": "Battle Freak Has Been FOUND!!"
    },
    {
      "username": "NoNameOk",
      "avatar": "output/avatar/NoNameOk",
      "comment": "Wew fantastic"
    },
    {
      "username": "NoNameOk",
      "avatar": "output/avatar/NoNameOk",
      "comment": "Who's last boss"
    },
    {
      "username": "Hakurou\u2642\ufe0e",
      "avatar": "output/avatar/Hakurou\u2642\ufe0e",
      "comment": "Jin woo's prime lol"
    }
  ]
}