{
  "title": "Solo Leveling - Vol.3 Ch.185 - Share Any Manga on MangaPark",
  "slug": "7933857-vol-3-ch-185",
  "url": "https://mangapark.net/title/75577-en-solo-leveling/7933857-vol-3-ch-185",
  "comments": [
    {
      "username": "NEWTON",
      "avatar": "output/avatar/NEWTON",
      "comment": "Loves in the air"
    }
  ]
}