{
  "title": "Solo Leveling - Side Story 20 - Share Any Manga on MangaPark",
  "slug": "7980977-side-story-20",
  "url": "https://mangapark.net/title/75577-en-solo-leveling/7980977-side-story-20",
  "comments": [
    {
      "username": "paytrenhermawan1945",
      "avatar": "",
      "comment": "Poor beru"
    },
    {
      "username": "TachibanaAl\u2642\ufe0e",
      "avatar": "output/avatar/TachibanaAl\u2642\ufe0e",
      "comment": "PAPA MONARCH!!!!!\nAYO MAN, BERU IS TOO WHOLESOME! \ud83d\ude2d\nA NEW ENEMIES?\nLET'S GOOOOOOOOO!!!!"
    },
    {
      "username": "TachibanaAl\u2642\ufe0e",
      "avatar": "output/avatar/TachibanaAl\u2642\ufe0e",
      "comment": "Who dare downvote me?!"
    },
    {
      "username": "Seirehana",
      "avatar": "output/avatar/Seirehana",
      "comment": "Sorry, but I love to accept such challenges, stubborness isekai in my blood \ud83d\ude01\u2611\ufe0f"
    },
    {
      "username": "adi000987",
      "avatar": "output/avatar/adi000987",
      "comment": "I don't think so there will be new enemies as there weren't in the the novel if we by it there will be only 1-2 more chapters"
    },
    {
      "username": "FAKE_JOKER",
      "avatar": "output/avatar/FAKE_JOKER.png",
      "comment": "there is a sequel nobel if i recall, this might be author idea for the continuation"
    },
    {
      "username": "adi000987",
      "avatar": "",
      "comment": "Might be"
    },
    {
      "username": "Your_Local_Gynecologist",
      "avatar": "output/avatar/Your_Local_Gynecologist.png",
      "comment": "Some father son bonding time coming soon in the form of beating the shit out of some dimensional monsters."
    },
    {
      "username": "Grief283189\u2642\ufe0e",
      "avatar": "output/avatar/Grief283189\u2642\ufe0e",
      "comment": "Papa sung showing levels and like\nMy father is the final boss"
    },
    {
      "username": "Augusto Rodrigues\u2642\ufe0e",
      "avatar": "output/avatar/Augusto Rodrigues\u2642\ufe0e",
      "comment": "If Beru cry... I sweat on my eyes manly"
    },
    {
      "username": "Tirache\u2642\ufe0e",
      "avatar": "output/avatar/Tirache\u2642\ufe0e.jpg",
      "comment": "Is this the premise of a new beginning or is this the about to END"
    },
    {
      "username": "reenreads",
      "avatar": "",
      "comment": "Could be both. I think the author linked up the original trope (hunters and gates) to another popular trope (virtual reality). Prolly not meant to start a new series, but it's interesting that these things are interconnecting."
    },
    {
      "username": "_Kayden_",
      "avatar": "output/avatar/_Kayden_",
      "comment": "SJW story is about to end but a new beginning for jin-woo\u2019s son"
    },
    {
      "username": "Maanas",
      "avatar": "output/avatar/Maanas",
      "comment": "About to end"
    },
    {
      "username": "Nishara",
      "avatar": "output/avatar/Nishara",
      "comment": "Now that was little bit excited to read when sung jin-woo appear"
    },
    {
      "username": "KarmaismynameXD\u2640\ufe0e",
      "avatar": "output/avatar/KarmaismynameXD\u2640\ufe0e",
      "comment": "NOOOOO BERU DON'T CRYYYY (TToTT)"
    },
    {
      "username": "Voi Bay\u2642\ufe0e",
      "avatar": "output/avatar/Voi Bay\u2642\ufe0e.jpg",
      "comment": "That pat on the head reminds me when my dad taught me how to play Rock Rash"
    },
    {
      "username": "EuniceSuso",
      "avatar": "output/avatar/EuniceSuso",
      "comment": ""
    },
    {
      "username": "User.808226",
      "avatar": "output/avatar/User.808226.jpg",
      "comment": "Oh come on. After all of that,its just a dream ??"
    },
    {
      "username": "Just_A_Passing_Shinigami\u2642\ufe0e",
      "avatar": "output/avatar/Just_A_Passing_Shinigami\u2642\ufe0e",
      "comment": "its like kidnapping and at the end drugging to make you believe you aint even kidnapped xD"
    },
    {
      "username": "Aihara",
      "avatar": "",
      "comment": "It's not dream, jin we take him to sleep and make him like dream..."
    },
    {
      "username": "Mr.Zero\u2642\ufe0e",
      "avatar": "output/avatar/Mr.Zero\u2642\ufe0e",
      "comment": "They are also using the remnants of the artifact to bring him back to the previous time he went to sleep making him think it was just a dream. Its like training him multiple times but he doesnt remember it and he is going back in time just when he reaches the final boss (SJW)."
    },
    {
      "username": "geraldgallardo099",
      "avatar": "output/avatar/geraldgallardo099",
      "comment": "Papa is back"
    },
    {
      "username": "Shamon\u2642\ufe0e",
      "avatar": "output/avatar/Shamon\u2642\ufe0e",
      "comment": "Jin-ho being cursed at names fr \ud83d\udc80\ud83d\udc80\ud83d\ude29"
    },
    {
      "username": "U.1117771",
      "avatar": "",
      "comment": "Beru becoming a crybaby\ud83d\ude02\ud83d\ude02\ud83d\ude02"
    },
    {
      "username": "Neuromancer\u2122",
      "avatar": "output/avatar/Neuromancer\u2122",
      "comment": "Beru...... TwT"
    },
    {
      "username": "KangBroo",
      "avatar": "output/avatar/KangBroo.png",
      "comment": "Sucks!!"
    },
    {
      "username": "Whiplash",
      "avatar": "output/avatar/Whiplash",
      "comment": "Is this the final chapter?"
    },
    {
      "username": "adi000987",
      "avatar": "",
      "comment": "No there is supposed to be 1 more scene between jin woo and his wife(forgot the name\ud83d\ude05)(by the novel)"
    },
    {
      "username": "Suiton\u2642\ufe0e",
      "avatar": "output/avatar/Suiton\u2642\ufe0e",
      "comment": "This was amazing. Beru fought with the Young Monarch. I'm sure he had conflicted feeling about the battle but more importantly he was happy to see him again."
    },
    {
      "username": "BrunoVilla",
      "avatar": "output/avatar/BrunoVilla.jpg",
      "comment": "Yoo Jinho couldn't have MC because that was too gay, so he goes for MC's sister instead.\n200 IQ play"
    },
    {
      "username": "Captivating \u2642\ufe0e",
      "avatar": "output/avatar/Captivating \u2642\ufe0e",
      "comment": "This is so good and so wholesome. Just fantastic. Im having so much fun reading this"
    }
  ]
}