{
  "title": "Solo Leveling - Vol.3 Ch.193 - Share Any Manga on MangaPark",
  "slug": "8020004-vol-3-ch-193",
  "url": "https://mangapark.net/title/75577-en-solo-leveling/8020004-vol-3-ch-193",
  "comments": [
    {
      "username": "NEWTON",
      "avatar": "output/avatar/NEWTON",
      "comment": "Stfu it\u2019s getting interesting"
    }
  ]
}